TVS_800microH_Vin=0_Vout=0/Iout--140k 3--00000.csv

"Record Length",10002,"Points",-0.0001000078,-0.3
"Sample Interval",5e-08,s,-9.995776e-05,-0.39
"Trigger Point",2000,"Samples",-9.990776e-05,-0.24
"Trigger Time",0.155194,s,-9.985776e-05,-0.24
,,,-9.980776e-05,-0.27
"Horizontal Offset",-0.000100008,s,-9.975776e-05,-0.24
,,,-9.970776e-05,-0.3
,,,-9.965776e-05,-0.42
,,,-9.960776e-05,-0.24
,,,-9.955776e-05,-0.36
,,,-9.950776e-05,-0.3
,,,-9.945776e-05,-0.27
,,,-9.940776e-05,-0.33
,,,-9.935776e-05,-0.3
,,,-9.930776e-05,-0.21
,,,-9.925776e-05,-0.3
,,,-9.920776e-05,-0.3
,,,-9.915776e-05,-0.27
,,,-9.910776e-05,-0.27
,,,-9.905776e-05,-0.27
,,,-9.900776e-05,-0.39
,,,-9.895776e-05,-0.24
,,,-9.890776e-05,-0.3
,,,-9.885776e-05,-0.33
,,,-9.880776e-05,-0.3
,,,-9.875776e-05,-0.18
,,,-9.870776e-05,-0.33
,,,-9.865776e-05,-0.33
,,,-9.860776e-05,-0.33
,,,-9.855776e-05,-0.33
,,,-9.850776e-05,-0.24
,,,-9.845776e-05,-0.36
,,,-9.840776e-05,-0.3
,,,-9.835776e-05,-0.27
,,,-9.830776e-05,-0.21
,,,-9.825776e-05,-0.24
,,,-9.820776e-05,-0.33
,,,-9.815776e-05,-0.3
,,,-9.810776e-05,-0.24
,,,-9.805776e-05,-0.27
,,,-9.800776e-05,-0.18
,,,-9.795776e-05,-0.12
,,,-9.790776e-05,-0.3
,,,-9.785776e-05,-0.27
,,,-9.780776e-05,-0.21
,,,-9.775776e-05,-0.3
,,,-9.770776e-05,-0.3
,,,-9.765776e-05,-0.3
,,,-9.760776e-05,-0.36
,,,-9.755776e-05,-0.39
,,,-9.750776e-05,-0.3
,,,-9.745776e-05,-0.24
,,,-9.740776e-05,-0.33
,,,-9.735776e-05,-0.27
,,,-9.730776e-05,-0.18
,,,-9.725776e-05,-0.3
,,,-9.720776e-05,-0.27
,,,-9.715776e-05,-0.27
,,,-9.710776e-05,-0.24
,,,-9.705776e-05,-0.3
,,,-9.700776e-05,-0.3
,,,-9.695776e-05,-0.3
,,,-9.690776e-05,-0.27
,,,-9.685776e-05,-0.33
,,,-9.680776e-05,-0.27
,,,-9.675776e-05,-0.27
,,,-9.670776e-05,-0.27
,,,-9.665776e-05,-0.18
,,,-9.660776e-05,-0.3
,,,-9.655776e-05,-0.24
,,,-9.650776e-05,-0.21
,,,-9.645776e-05,-0.21
,,,-9.640776e-05,-0.24
,,,-9.635776e-05,-0.27
,,,-9.630776e-05,-0.18
,,,-9.625776e-05,-0.24
,,,-9.620776e-05,-0.3
,,,-9.615776e-05,-0.27
,,,-9.610776e-05,-0.27
,,,-9.605776e-05,-0.21
,,,-9.600776e-05,-0.27
,,,-9.595776e-05,-0.36
,,,-9.590776e-05,-0.27
,,,-9.585776e-05,-0.3
,,,-9.580776e-05,-0.33
,,,-9.575776e-05,-0.24
,,,-9.570776e-05,-0.3
,,,-9.565776e-05,-0.3
,,,-9.560776e-05,-0.3
,,,-9.555776e-05,-0.3
,,,-9.550776e-05,-0.24
,,,-9.545776e-05,-0.18
,,,-9.540776e-05,-0.27
,,,-9.535776e-05,-0.33
,,,-9.530776e-05,-0.33
,,,-9.525776e-05,-0.36
,,,-9.520776e-05,-0.3
,,,-9.515776e-05,-0.3
,,,-9.510776e-05,-0.36
,,,-9.505776e-05,-0.27
,,,-9.500776e-05,-0.33
,,,-9.495776e-05,-0.27
,,,-9.490776e-05,-0.3
,,,-9.485776e-05,-0.27
,,,-9.480776e-05,-0.39
,,,-9.475776e-05,-0.33
,,,-9.470776e-05,-0.27
,,,-9.465776e-05,-0.3
,,,-9.460776e-05,-0.3
,,,-9.455776e-05,-0.3
,,,-9.450776e-05,-0.24
,,,-9.445776e-05,-0.27
,,,-9.440776e-05,-0.24
,,,-9.435776e-05,-0.33
,,,-9.430776e-05,-0.3
,,,-9.425776e-05,-0.27
,,,-9.420776e-05,-0.3
,,,-9.415776e-05,-0.24
,,,-9.410776e-05,-0.27
,,,-9.405776e-05,-0.27
,,,-9.400776e-05,-0.27
,,,-9.395776e-05,-0.3
,,,-9.390776e-05,-0.24
,,,-9.385776e-05,-0.3
,,,-9.380776e-05,-0.33
,,,-9.375776e-05,-0.24
,,,-9.370776e-05,-0.33
,,,-9.365776e-05,-0.27
,,,-9.360776e-05,-0.33
,,,-9.355776e-05,-0.36
,,,-9.350776e-05,-0.24
,,,-9.345776e-05,-0.3
,,,-9.340776e-05,-0.36
,,,-9.335776e-05,-0.33
,,,-9.330776e-05,-0.33
,,,-9.325776e-05,-0.33
,,,-9.320776e-05,-0.39
,,,-9.315776e-05,-0.3
,,,-9.310776e-05,-0.3
,,,-9.305776e-05,-0.27
,,,-9.300776e-05,-0.3
,,,-9.295776e-05,-0.27
,,,-9.290776e-05,-0.33
,,,-9.285776e-05,-0.21
,,,-9.280776e-05,-0.24
,,,-9.275776e-05,-0.3
,,,-9.270776e-05,-0.27
,,,-9.265776e-05,-0.27
,,,-9.260776e-05,-0.24
,,,-9.255776e-05,-0.24
,,,-9.250776e-05,-0.3
,,,-9.245776e-05,-0.21
,,,-9.240776e-05,-0.3
,,,-9.235776e-05,-0.27
,,,-9.230776e-05,-0.33
,,,-9.225776e-05,-0.27
,,,-9.220776e-05,-0.24
,,,-9.215776e-05,-0.24
,,,-9.210776e-05,-0.24
,,,-9.205776e-05,-0.27
,,,-9.200776e-05,-0.33
,,,-9.195776e-05,-0.24
,,,-9.190776e-05,-0.27
,,,-9.185776e-05,-0.3
,,,-9.180776e-05,-0.27
,,,-9.175776e-05,-0.3
,,,-9.170776e-05,-0.39
,,,-9.165776e-05,-0.3
,,,-9.160776e-05,-0.24
,,,-9.155776e-05,-0.36
,,,-9.150776e-05,-0.27
,,,-9.145776e-05,-0.36
,,,-9.140776e-05,-0.36
,,,-9.135776e-05,-0.21
,,,-9.130776e-05,-0.21
,,,-9.125776e-05,-0.21
,,,-9.120776e-05,-0.27
,,,-9.115776e-05,-0.33
,,,-9.110776e-05,-0.3
,,,-9.105776e-05,-0.36
,,,-9.100776e-05,-0.33
,,,-9.095776e-05,-0.39
,,,-9.090776e-05,-0.33
,,,-9.085776e-05,-0.24
,,,-9.080776e-05,-0.21
,,,-9.075776e-05,-0.39
,,,-9.070776e-05,-0.24
,,,-9.065776e-05,-0.36
,,,-9.060776e-05,-0.36
,,,-9.055776e-05,-0.3
,,,-9.050776e-05,-0.24
,,,-9.045776e-05,-0.36
,,,-9.040776e-05,-0.33
,,,-9.035776e-05,-0.27
,,,-9.030776e-05,-0.27
,,,-9.025776e-05,-0.27
,,,-9.020776e-05,-0.27
,,,-9.015776e-05,-0.3
,,,-9.010776e-05,-0.21
,,,-9.005776e-05,-0.18
,,,-9.000776e-05,-0.27
,,,-8.995776e-05,-0.27
,,,-8.990776e-05,-0.36
,,,-8.985776e-05,-0.33
,,,-8.980776e-05,-0.27
,,,-8.975776e-05,-0.33
,,,-8.970776e-05,-0.24
,,,-8.965776e-05,-0.21
,,,-8.960776e-05,-0.27
,,,-8.955776e-05,-0.27
,,,-8.950776e-05,-0.27
,,,-8.945776e-05,-0.36
,,,-8.940776e-05,-0.3
,,,-8.935776e-05,-0.39
,,,-8.930776e-05,-0.24
,,,-8.925776e-05,-0.3
,,,-8.920776e-05,-0.24
,,,-8.915776e-05,-0.3
,,,-8.910776e-05,-0.24
,,,-8.905776e-05,-0.33
,,,-8.900776e-05,-0.3
,,,-8.895776e-05,-0.27
,,,-8.890776e-05,-0.3
,,,-8.885776e-05,-0.36
,,,-8.880776e-05,-0.33
,,,-8.875776e-05,-0.36
,,,-8.870776e-05,-0.21
,,,-8.865776e-05,-0.21
,,,-8.860776e-05,-0.42
,,,-8.855776e-05,-0.33
,,,-8.850776e-05,-0.24
,,,-8.845776e-05,-0.33
,,,-8.840776e-05,-0.33
,,,-8.835776e-05,-0.3
,,,-8.830776e-05,-0.3
,,,-8.825776e-05,-0.39
,,,-8.820776e-05,-0.36
,,,-8.815776e-05,-0.24
,,,-8.810776e-05,-0.36
,,,-8.805776e-05,-0.3
,,,-8.800776e-05,-0.33
,,,-8.795776e-05,-0.24
,,,-8.790776e-05,-0.24
,,,-8.785776e-05,-0.33
,,,-8.780776e-05,-0.27
,,,-8.775776e-05,-0.27
,,,-8.770776e-05,-0.3
,,,-8.765776e-05,-0.36
,,,-8.760776e-05,-0.3
,,,-8.755776e-05,-0.3
,,,-8.750776e-05,-0.3
,,,-8.745776e-05,-0.33
,,,-8.740776e-05,-0.36
,,,-8.735776e-05,-0.33
,,,-8.730776e-05,-0.21
,,,-8.725776e-05,-0.42
,,,-8.720776e-05,-0.3
,,,-8.715776e-05,-0.27
,,,-8.710776e-05,-0.24
,,,-8.705776e-05,-0.27
,,,-8.700776e-05,-0.24
,,,-8.695776e-05,-0.27
,,,-8.690776e-05,-0.27
,,,-8.685776e-05,-0.36
,,,-8.680776e-05,-0.33
,,,-8.675776e-05,-0.39
,,,-8.670776e-05,-0.21
,,,-8.665776e-05,-0.3
,,,-8.660776e-05,-0.27
,,,-8.655776e-05,-0.39
,,,-8.650776e-05,-0.24
,,,-8.645776e-05,-0.33
,,,-8.640776e-05,-0.3
,,,-8.635776e-05,-0.3
,,,-8.630776e-05,-0.24
,,,-8.625776e-05,-0.3
,,,-8.620776e-05,-0.27
,,,-8.615776e-05,-0.33
,,,-8.610776e-05,-0.21
,,,-8.605776e-05,-0.39
,,,-8.600776e-05,-0.33
,,,-8.595776e-05,-0.15
,,,-8.590776e-05,-0.33
,,,-8.585776e-05,-0.33
,,,-8.580776e-05,-0.33
,,,-8.575776e-05,-0.36
,,,-8.570776e-05,-0.3
,,,-8.565776e-05,-0.36
,,,-8.560776e-05,-0.33
,,,-8.555776e-05,-0.24
,,,-8.550776e-05,-0.15
,,,-8.545776e-05,-0.21
,,,-8.540776e-05,-0.33
,,,-8.535776e-05,-0.3
,,,-8.530776e-05,-0.27
,,,-8.525776e-05,-0.36
,,,-8.520776e-05,-0.27
,,,-8.515776e-05,-0.33
,,,-8.510776e-05,-0.21
,,,-8.505776e-05,-0.3
,,,-8.500776e-05,-0.33
,,,-8.495776e-05,-0.24
,,,-8.490776e-05,-0.33
,,,-8.485776e-05,-0.27
,,,-8.480776e-05,-0.3
,,,-8.475776e-05,-0.3
,,,-8.470776e-05,-0.21
,,,-8.465776e-05,-0.21
,,,-8.460776e-05,-0.27
,,,-8.455776e-05,-0.3
,,,-8.450776e-05,-0.3
,,,-8.445776e-05,-0.27
,,,-8.440776e-05,-0.21
,,,-8.435776e-05,-0.24
,,,-8.430776e-05,-0.18
,,,-8.425776e-05,-0.3
,,,-8.420776e-05,-0.27
,,,-8.415776e-05,-0.33
,,,-8.410776e-05,-0.33
,,,-8.405776e-05,-0.33
,,,-8.400776e-05,-0.24
,,,-8.395776e-05,-0.27
,,,-8.390776e-05,-0.24
,,,-8.385776e-05,-0.24
,,,-8.380776e-05,-0.27
,,,-8.375776e-05,-0.36
,,,-8.370776e-05,-0.3
,,,-8.365776e-05,-0.39
,,,-8.360776e-05,-0.36
,,,-8.355776e-05,-0.33
,,,-8.350776e-05,-0.24
,,,-8.345776e-05,-0.39
,,,-8.340776e-05,-0.27
,,,-8.335776e-05,-0.21
,,,-8.330776e-05,-0.33
,,,-8.325776e-05,-0.21
,,,-8.320776e-05,-0.3
,,,-8.315776e-05,-0.33
,,,-8.310776e-05,-0.3
,,,-8.305776e-05,-0.33
,,,-8.300776e-05,-0.3
,,,-8.295776e-05,-0.15
,,,-8.290776e-05,-0.27
,,,-8.285776e-05,-0.33
,,,-8.280776e-05,-0.33
,,,-8.275776e-05,-0.3
,,,-8.270776e-05,-0.27
,,,-8.265776e-05,-0.33
,,,-8.260776e-05,-0.27
,,,-8.255776e-05,-0.24
,,,-8.250776e-05,-0.24
,,,-8.245776e-05,-0.36
,,,-8.240776e-05,-0.27
,,,-8.235776e-05,-0.3
,,,-8.230776e-05,-0.3
,,,-8.225776e-05,-0.27
,,,-8.220776e-05,-0.27
,,,-8.215776e-05,-0.3
,,,-8.210776e-05,-0.21
,,,-8.205776e-05,-0.3
,,,-8.200776e-05,-0.27
,,,-8.195776e-05,-0.3
,,,-8.190776e-05,-0.27
,,,-8.185776e-05,-0.33
,,,-8.180776e-05,-0.27
,,,-8.175776e-05,-0.33
,,,-8.170776e-05,-0.27
,,,-8.165776e-05,-0.18
,,,-8.160776e-05,-0.24
,,,-8.155776e-05,-0.27
,,,-8.150776e-05,-0.3
,,,-8.145776e-05,-0.3
,,,-8.140776e-05,-0.33
,,,-8.135776e-05,-0.36
,,,-8.130776e-05,-0.33
,,,-8.125776e-05,-0.3
,,,-8.120776e-05,-0.27
,,,-8.115776e-05,-0.36
,,,-8.110776e-05,-0.24
,,,-8.105776e-05,-0.3
,,,-8.100776e-05,-0.3
,,,-8.095776e-05,-0.27
,,,-8.090776e-05,-0.18
,,,-8.085776e-05,-0.27
,,,-8.080776e-05,-0.39
,,,-8.075776e-05,-0.27
,,,-8.070776e-05,-0.27
,,,-8.065776e-05,-0.27
,,,-8.060776e-05,-0.24
,,,-8.055776e-05,-0.3
,,,-8.050776e-05,-0.3
,,,-8.045776e-05,-0.27
,,,-8.040776e-05,-0.27
,,,-8.035776e-05,-0.33
,,,-8.030776e-05,-0.3
,,,-8.025776e-05,-0.15
,,,-8.020776e-05,-0.27
,,,-8.015776e-05,-0.3
,,,-8.010776e-05,-0.21
,,,-8.005776e-05,-0.21
,,,-8.000776e-05,-0.24
,,,-7.995776e-05,-0.3
,,,-7.990776e-05,-0.24
,,,-7.985776e-05,-0.24
,,,-7.980776e-05,-0.27
,,,-7.975776e-05,-0.36
,,,-7.970776e-05,-0.15
,,,-7.965776e-05,-0.21
,,,-7.960776e-05,-0.21
,,,-7.955776e-05,-0.27
,,,-7.950776e-05,-0.27
,,,-7.945776e-05,-0.33
,,,-7.940776e-05,-0.24
,,,-7.935776e-05,-0.24
,,,-7.930776e-05,-0.27
,,,-7.925776e-05,-0.3
,,,-7.920776e-05,-0.27
,,,-7.915776e-05,-0.27
,,,-7.910776e-05,-0.27
,,,-7.905776e-05,-0.24
,,,-7.900776e-05,-0.24
,,,-7.895776e-05,-0.3
,,,-7.890776e-05,-0.15
,,,-7.885776e-05,-0.21
,,,-7.880776e-05,-0.24
,,,-7.875776e-05,-0.27
,,,-7.870776e-05,-0.15
,,,-7.865776e-05,-0.27
,,,-7.860776e-05,-0.27
,,,-7.855776e-05,-0.3
,,,-7.850776e-05,-0.27
,,,-7.845776e-05,-0.21
,,,-7.840776e-05,-0.27
,,,-7.835776e-05,-0.21
,,,-7.830776e-05,-0.15
,,,-7.825776e-05,-0.27
,,,-7.820776e-05,-0.27
,,,-7.815776e-05,-0.33
,,,-7.810776e-05,-0.24
,,,-7.805776e-05,-0.3
,,,-7.800776e-05,-0.24
,,,-7.795776e-05,-0.24
,,,-7.790776e-05,-0.21
,,,-7.785776e-05,-0.39
,,,-7.780776e-05,-0.33
,,,-7.775776e-05,-0.27
,,,-7.770776e-05,-0.18
,,,-7.765776e-05,-0.33
,,,-7.760776e-05,-0.27
,,,-7.755776e-05,-0.3
,,,-7.750776e-05,-0.18
,,,-7.745776e-05,-0.24
,,,-7.740776e-05,-0.27
,,,-7.735776e-05,-0.24
,,,-7.730776e-05,-0.18
,,,-7.725776e-05,-0.33
,,,-7.720776e-05,-0.27
,,,-7.715776e-05,-0.21
,,,-7.710776e-05,-0.24
,,,-7.705776e-05,-0.27
,,,-7.700776e-05,-0.24
,,,-7.695776e-05,-0.21
,,,-7.690776e-05,-0.27
,,,-7.685776e-05,-0.33
,,,-7.680776e-05,-0.27
,,,-7.675776e-05,-0.33
,,,-7.670776e-05,-0.21
,,,-7.665776e-05,-0.18
,,,-7.660776e-05,-0.42
,,,-7.655776e-05,-0.27
,,,-7.650776e-05,-0.21
,,,-7.645776e-05,-0.27
,,,-7.640776e-05,-0.3
,,,-7.635776e-05,-0.18
,,,-7.630776e-05,-0.18
,,,-7.625776e-05,-0.3
,,,-7.620776e-05,-0.24
,,,-7.615776e-05,-0.3
,,,-7.610776e-05,-0.21
,,,-7.605776e-05,-0.3
,,,-7.600776e-05,-0.3
,,,-7.595776e-05,-0.27
,,,-7.590776e-05,-0.24
,,,-7.585776e-05,-0.33
,,,-7.580776e-05,-0.27
,,,-7.575776e-05,-0.27
,,,-7.570776e-05,-0.27
,,,-7.565776e-05,-0.27
,,,-7.560776e-05,-0.3
,,,-7.555776e-05,-0.27
,,,-7.550776e-05,-0.18
,,,-7.545776e-05,-0.18
,,,-7.540776e-05,-0.24
,,,-7.535776e-05,-0.24
,,,-7.530776e-05,-0.3
,,,-7.525776e-05,-0.24
,,,-7.520776e-05,-0.27
,,,-7.515776e-05,-0.24
,,,-7.510776e-05,-0.27
,,,-7.505776e-05,-0.27
,,,-7.500776e-05,-0.24
,,,-7.495776e-05,-0.3
,,,-7.490776e-05,-0.3
,,,-7.485776e-05,-0.24
,,,-7.480776e-05,-0.3
,,,-7.475776e-05,-0.27
,,,-7.470776e-05,-0.27
,,,-7.465776e-05,-0.3
,,,-7.460776e-05,-0.21
,,,-7.455776e-05,-0.33
,,,-7.450776e-05,-0.27
,,,-7.445776e-05,-0.24
,,,-7.440776e-05,-0.24
,,,-7.435776e-05,-0.21
,,,-7.430776e-05,-0.18
,,,-7.425776e-05,-0.27
,,,-7.420776e-05,-0.24
,,,-7.415776e-05,-0.3
,,,-7.410776e-05,-0.27
,,,-7.405776e-05,-0.24
,,,-7.400776e-05,-0.27
,,,-7.395776e-05,-0.33
,,,-7.390776e-05,-0.21
,,,-7.385776e-05,-0.39
,,,-7.380776e-05,-0.24
,,,-7.375776e-05,-0.3
,,,-7.370776e-05,-0.18
,,,-7.365776e-05,-0.33
,,,-7.360776e-05,-0.27
,,,-7.355776e-05,-0.18
,,,-7.350776e-05,-0.3
,,,-7.345776e-05,-0.27
,,,-7.340776e-05,-0.27
,,,-7.335776e-05,-0.27
,,,-7.330776e-05,-0.21
,,,-7.325776e-05,-0.33
,,,-7.320776e-05,-0.27
,,,-7.315776e-05,-0.33
,,,-7.310776e-05,-0.27
,,,-7.305776e-05,-0.21
,,,-7.300776e-05,-0.36
,,,-7.295776e-05,-0.33
,,,-7.290776e-05,-0.39
,,,-7.285776e-05,-0.36
,,,-7.280776e-05,-0.3
,,,-7.275776e-05,-0.3
,,,-7.270776e-05,-0.24
,,,-7.265776e-05,-0.21
,,,-7.260776e-05,-0.3
,,,-7.255776e-05,-0.42
,,,-7.250776e-05,-0.36
,,,-7.245776e-05,-0.36
,,,-7.240776e-05,-0.3
,,,-7.235776e-05,-0.21
,,,-7.230776e-05,-0.33
,,,-7.225776e-05,-0.36
,,,-7.220776e-05,-0.39
,,,-7.215776e-05,-0.3
,,,-7.210776e-05,-0.27
,,,-7.205776e-05,-0.36
,,,-7.200776e-05,-0.24
,,,-7.195776e-05,-0.24
,,,-7.190776e-05,-0.27
,,,-7.185776e-05,-0.36
,,,-7.180776e-05,-0.27
,,,-7.175776e-05,-0.3
,,,-7.170776e-05,-0.27
,,,-7.165776e-05,-0.24
,,,-7.160776e-05,-0.33
,,,-7.155776e-05,-0.33
,,,-7.150776e-05,-0.24
,,,-7.145776e-05,-0.3
,,,-7.140776e-05,-0.33
,,,-7.135776e-05,-0.27
,,,-7.130776e-05,-0.27
,,,-7.125776e-05,-0.33
,,,-7.120776e-05,-0.27
,,,-7.115776e-05,-0.24
,,,-7.110776e-05,-0.27
,,,-7.105776e-05,-0.36
,,,-7.100776e-05,-0.33
,,,-7.095776e-05,-0.27
,,,-7.090776e-05,-0.33
,,,-7.085776e-05,-0.24
,,,-7.080776e-05,-0.33
,,,-7.075776e-05,-0.3
,,,-7.070776e-05,-0.33
,,,-7.065776e-05,-0.3
,,,-7.060776e-05,-0.3
,,,-7.055776e-05,-0.3
,,,-7.050776e-05,-0.27
,,,-7.045776e-05,-0.27
,,,-7.040776e-05,-0.3
,,,-7.035776e-05,-0.27
,,,-7.030776e-05,-0.27
,,,-7.025776e-05,-0.3
,,,-7.020776e-05,-0.3
,,,-7.015776e-05,-0.3
,,,-7.010776e-05,-0.39
,,,-7.005776e-05,-0.33
,,,-7.000776e-05,-0.3
,,,-6.995776e-05,-0.27
,,,-6.990776e-05,-0.24
,,,-6.985776e-05,-0.21
,,,-6.980776e-05,-0.39
,,,-6.975776e-05,-0.24
,,,-6.970776e-05,-0.24
,,,-6.965776e-05,-0.3
,,,-6.960776e-05,-0.33
,,,-6.955776e-05,-0.39
,,,-6.950776e-05,-0.3
,,,-6.945776e-05,-0.3
,,,-6.940776e-05,-0.24
,,,-6.935776e-05,-0.33
,,,-6.930776e-05,-0.27
,,,-6.925776e-05,-0.36
,,,-6.920776e-05,-0.33
,,,-6.915776e-05,-0.3
,,,-6.910776e-05,-0.33
,,,-6.905776e-05,-0.3
,,,-6.900776e-05,-0.33
,,,-6.895776e-05,-0.21
,,,-6.890776e-05,-0.3
,,,-6.885776e-05,-0.36
,,,-6.880776e-05,-0.3
,,,-6.875776e-05,-0.21
,,,-6.870776e-05,-0.3
,,,-6.865776e-05,-0.21
,,,-6.860776e-05,-0.33
,,,-6.855776e-05,-0.3
,,,-6.850776e-05,-0.3
,,,-6.845776e-05,-0.24
,,,-6.840776e-05,-0.3
,,,-6.835776e-05,-0.3
,,,-6.830776e-05,-0.33
,,,-6.825776e-05,-0.39
,,,-6.820776e-05,-0.36
,,,-6.815776e-05,-0.33
,,,-6.810776e-05,-0.33
,,,-6.805776e-05,-0.3
,,,-6.800776e-05,-0.36
,,,-6.795776e-05,-0.39
,,,-6.790776e-05,-0.33
,,,-6.785776e-05,-0.39
,,,-6.780776e-05,-0.27
,,,-6.775776e-05,-0.33
,,,-6.770776e-05,-0.27
,,,-6.765776e-05,-0.24
,,,-6.760776e-05,-0.27
,,,-6.755776e-05,-0.33
,,,-6.750776e-05,-0.27
,,,-6.745776e-05,-0.36
,,,-6.740776e-05,-0.27
,,,-6.735776e-05,-0.33
,,,-6.730776e-05,-0.36
,,,-6.725776e-05,-0.3
,,,-6.720776e-05,-0.39
,,,-6.715776e-05,-0.21
,,,-6.710776e-05,-0.24
,,,-6.705776e-05,-0.24
,,,-6.700776e-05,-0.27
,,,-6.695776e-05,-0.27
,,,-6.690776e-05,-0.27
,,,-6.685776e-05,-0.33
,,,-6.680776e-05,-0.36
,,,-6.675776e-05,-0.36
,,,-6.670776e-05,-0.33
,,,-6.665776e-05,-0.27
,,,-6.660776e-05,-0.33
,,,-6.655776e-05,-0.3
,,,-6.650776e-05,-0.33
,,,-6.645776e-05,-0.42
,,,-6.640776e-05,-0.3
,,,-6.635776e-05,-0.27
,,,-6.630776e-05,-0.3
,,,-6.625776e-05,-0.3
,,,-6.620776e-05,-0.39
,,,-6.615776e-05,-0.27
,,,-6.610776e-05,-0.36
,,,-6.605776e-05,-0.24
,,,-6.600776e-05,-0.33
,,,-6.595776e-05,-0.33
,,,-6.590776e-05,-0.24
,,,-6.585776e-05,-0.42
,,,-6.580776e-05,-0.33
,,,-6.575776e-05,-0.24
,,,-6.570776e-05,-0.27
,,,-6.565776e-05,-0.39
,,,-6.560776e-05,-0.3
,,,-6.555776e-05,-0.3
,,,-6.550776e-05,-0.36
,,,-6.545776e-05,-0.36
,,,-6.540776e-05,-0.33
,,,-6.535776e-05,-0.18
,,,-6.530776e-05,-0.33
,,,-6.525776e-05,-0.33
,,,-6.520776e-05,-0.33
,,,-6.515776e-05,-0.3
,,,-6.510776e-05,-0.27
,,,-6.505776e-05,-0.42
,,,-6.500776e-05,-0.36
,,,-6.495776e-05,-0.3
,,,-6.490776e-05,-0.33
,,,-6.485776e-05,-0.24
,,,-6.480776e-05,-0.27
,,,-6.475776e-05,-0.36
,,,-6.470776e-05,-0.33
,,,-6.465776e-05,-0.36
,,,-6.460776e-05,-0.27
,,,-6.455776e-05,-0.27
,,,-6.450776e-05,-0.27
,,,-6.445776e-05,-0.3
,,,-6.440776e-05,-0.33
,,,-6.435776e-05,-0.27
,,,-6.430776e-05,-0.24
,,,-6.425776e-05,-0.21
,,,-6.420776e-05,-0.36
,,,-6.415776e-05,-0.33
,,,-6.410776e-05,-0.24
,,,-6.405776e-05,-0.36
,,,-6.400776e-05,-0.3
,,,-6.395776e-05,-0.33
,,,-6.390776e-05,-0.39
,,,-6.385776e-05,-0.33
,,,-6.380776e-05,-0.39
,,,-6.375776e-05,-0.36
,,,-6.370776e-05,-0.33
,,,-6.365776e-05,-0.3
,,,-6.360776e-05,-0.27
,,,-6.355776e-05,-0.3
,,,-6.350776e-05,-0.33
,,,-6.345776e-05,-0.42
,,,-6.340776e-05,-0.3
,,,-6.335776e-05,-0.39
,,,-6.330776e-05,-0.3
,,,-6.325776e-05,-0.39
,,,-6.320776e-05,-0.3
,,,-6.315776e-05,-0.36
,,,-6.310776e-05,-0.33
,,,-6.305776e-05,-0.36
,,,-6.300776e-05,-0.36
,,,-6.295776e-05,-0.33
,,,-6.290776e-05,-0.33
,,,-6.285776e-05,-0.27
,,,-6.280776e-05,-0.39
,,,-6.275776e-05,-0.36
,,,-6.270776e-05,-0.27
,,,-6.265776e-05,-0.27
,,,-6.260776e-05,-0.36
,,,-6.255776e-05,-0.36
,,,-6.250776e-05,-0.33
,,,-6.245776e-05,-0.21
,,,-6.240776e-05,-0.36
,,,-6.235776e-05,-0.3
,,,-6.230776e-05,-0.27
,,,-6.225776e-05,-0.42
,,,-6.220776e-05,-0.36
,,,-6.215776e-05,-0.36
,,,-6.210776e-05,-0.33
,,,-6.205776e-05,-0.3
,,,-6.200776e-05,-0.24
,,,-6.195776e-05,-0.33
,,,-6.190776e-05,-0.3
,,,-6.185776e-05,-0.3
,,,-6.180776e-05,-0.36
,,,-6.175776e-05,-0.33
,,,-6.170776e-05,-0.33
,,,-6.165776e-05,-0.24
,,,-6.160776e-05,-0.27
,,,-6.155776e-05,-0.3
,,,-6.150776e-05,-0.24
,,,-6.145776e-05,-0.36
,,,-6.140776e-05,-0.3
,,,-6.135776e-05,-0.36
,,,-6.130776e-05,-0.24
,,,-6.125776e-05,-0.39
,,,-6.120776e-05,-0.3
,,,-6.115776e-05,-0.39
,,,-6.110776e-05,-0.33
,,,-6.105776e-05,-0.24
,,,-6.100776e-05,-0.24
,,,-6.095776e-05,-0.3
,,,-6.090776e-05,-0.3
,,,-6.085776e-05,-0.33
,,,-6.080776e-05,-0.33
,,,-6.075776e-05,-0.27
,,,-6.070776e-05,-0.39
,,,-6.065776e-05,-0.33
,,,-6.060776e-05,-0.24
,,,-6.055776e-05,-0.33
,,,-6.050776e-05,-0.33
,,,-6.045776e-05,-0.36
,,,-6.040776e-05,-0.33
,,,-6.035776e-05,-0.27
,,,-6.030776e-05,-0.27
,,,-6.025776e-05,-0.24
,,,-6.020776e-05,-0.36
,,,-6.015776e-05,-0.39
,,,-6.010776e-05,-0.33
,,,-6.005776e-05,-0.24
,,,-6.000776e-05,-0.33
,,,-5.995776e-05,-0.3
,,,-5.990776e-05,-0.24
,,,-5.985776e-05,-0.33
,,,-5.980776e-05,-0.33
,,,-5.975776e-05,-0.3
,,,-5.970776e-05,-0.3
,,,-5.965776e-05,-0.3
,,,-5.960776e-05,-0.36
,,,-5.955776e-05,-0.3
,,,-5.950776e-05,-0.39
,,,-5.945776e-05,-0.33
,,,-5.940776e-05,-0.3
,,,-5.935776e-05,-0.27
,,,-5.930776e-05,-0.24
,,,-5.925776e-05,-0.39
,,,-5.920776e-05,-0.33
,,,-5.915776e-05,-0.33
,,,-5.910776e-05,-0.3
,,,-5.905776e-05,-0.21
,,,-5.900776e-05,-0.27
,,,-5.895776e-05,-0.27
,,,-5.890776e-05,-0.3
,,,-5.885776e-05,-0.33
,,,-5.880776e-05,-0.24
,,,-5.875776e-05,-0.3
,,,-5.870776e-05,-0.33
,,,-5.865776e-05,-0.33
,,,-5.860776e-05,-0.39
,,,-5.855776e-05,-0.36
,,,-5.850776e-05,-0.33
,,,-5.845776e-05,-0.36
,,,-5.840776e-05,-0.27
,,,-5.835776e-05,-0.27
,,,-5.830776e-05,-0.3
,,,-5.825776e-05,-0.33
,,,-5.820776e-05,-0.3
,,,-5.815776e-05,-0.27
,,,-5.810776e-05,-0.27
,,,-5.805776e-05,-0.3
,,,-5.800776e-05,-0.3
,,,-5.795776e-05,-0.27
,,,-5.790776e-05,-0.27
,,,-5.785776e-05,-0.27
,,,-5.780776e-05,-0.3
,,,-5.775776e-05,-0.18
,,,-5.770776e-05,-0.33
,,,-5.765776e-05,-0.36
,,,-5.760776e-05,-0.33
,,,-5.755776e-05,-0.3
,,,-5.750776e-05,-0.27
,,,-5.745776e-05,-0.3
,,,-5.740776e-05,-0.27
,,,-5.735776e-05,-0.3
,,,-5.730776e-05,-0.33
,,,-5.725776e-05,-0.3
,,,-5.720776e-05,-0.39
,,,-5.715776e-05,-0.3
,,,-5.710776e-05,-0.33
,,,-5.705776e-05,-0.33
,,,-5.700776e-05,-0.33
,,,-5.695776e-05,-0.27
,,,-5.690776e-05,-0.36
,,,-5.685776e-05,-0.21
,,,-5.680776e-05,-0.36
,,,-5.675776e-05,-0.27
,,,-5.670776e-05,-0.24
,,,-5.665776e-05,-0.36
,,,-5.660776e-05,-0.3
,,,-5.655776e-05,-0.3
,,,-5.650776e-05,2.97
