TVS_800microH_Vin=100_Vout=40/Ptvs--140k 3--00000.csv

"Record Length",10002,"Points",-0.0001000356,22.5688
"Sample Interval",5e-08,s,-9.998557e-05,18.0745
"Trigger Point",2000,"Samples",-9.993557e-05,20.3217
"Trigger Time",0.711355,s,-9.988557e-05,17.7535
,,,-9.983557e-05,19.0376
"Horizontal Offset",-0.000100036,s,-9.978557e-05,20.3217
,,,-9.973557e-05,22.5688
,,,-9.968557e-05,23.8529
,,,-9.963557e-05,22.5688
,,,-9.958557e-05,21.6058
,,,-9.953557e-05,21.2848
,,,-9.948557e-05,21.2848
,,,-9.943557e-05,16.7904
,,,-9.938557e-05,21.6058
,,,-9.933557e-05,19.0376
,,,-9.928557e-05,23.8529
,,,-9.923557e-05,15.5064
,,,-9.918557e-05,21.6058
,,,-9.913557e-05,21.2848
,,,-9.908557e-05,19.0376
,,,-9.903557e-05,14.2223
,,,-9.898557e-05,19.0376
,,,-9.893557e-05,17.7535
,,,-9.888557e-05,21.2848
,,,-9.883557e-05,15.5064
,,,-9.878557e-05,20.3217
,,,-9.873557e-05,20.3217
,,,-9.868557e-05,23.8529
,,,-9.863557e-05,20.3217
,,,-9.858557e-05,15.5064
,,,-9.853557e-05,21.2848
,,,-9.848557e-05,23.8529
,,,-9.843557e-05,17.7535
,,,-9.838557e-05,22.8899
,,,-9.833557e-05,19.0376
,,,-9.828557e-05,22.5688
,,,-9.823557e-05,19.0376
,,,-9.818557e-05,22.8899
,,,-9.813557e-05,21.6058
,,,-9.808557e-05,23.8529
,,,-9.803557e-05,21.6058
,,,-9.798557e-05,21.6058
,,,-9.793557e-05,22.5688
,,,-9.788557e-05,21.2848
,,,-9.783557e-05,21.2848
,,,-9.778557e-05,20.3217
,,,-9.773557e-05,20.0007
,,,-9.768557e-05,20.3217
,,,-9.763557e-05,19.0376
,,,-9.758557e-05,18.0745
,,,-9.753557e-05,22.5688
,,,-9.748557e-05,21.2848
,,,-9.743557e-05,16.7904
,,,-9.738557e-05,20.3217
,,,-9.733557e-05,20.3217
,,,-9.728557e-05,23.8529
,,,-9.723557e-05,16.7904
,,,-9.718557e-05,19.0376
,,,-9.713557e-05,22.5688
,,,-9.708557e-05,23.8529
,,,-9.703557e-05,22.8899
,,,-9.698557e-05,20.3217
,,,-9.693557e-05,19.0376
,,,-9.688557e-05,24.816
,,,-9.683557e-05,25.137
,,,-9.678557e-05,18.0745
,,,-9.673557e-05,20.3217
,,,-9.668557e-05,21.2848
,,,-9.663557e-05,15.5064
,,,-9.658557e-05,19.0376
,,,-9.653557e-05,14.2223
,,,-9.648557e-05,21.2848
,,,-9.643557e-05,20.3217
,,,-9.638557e-05,18.0745
,,,-9.633557e-05,21.6058
,,,-9.628557e-05,27.3842
,,,-9.623557e-05,20.3217
,,,-9.618557e-05,15.5064
,,,-9.613557e-05,15.5064
,,,-9.608557e-05,23.8529
,,,-9.603557e-05,23.8529
,,,-9.598557e-05,17.7535
,,,-9.593557e-05,17.7535
,,,-9.588557e-05,21.2848
,,,-9.583557e-05,19.0376
,,,-9.578557e-05,22.8899
,,,-9.573557e-05,20.3217
,,,-9.568557e-05,22.5688
,,,-9.563557e-05,21.6058
,,,-9.558557e-05,23.8529
,,,-9.553557e-05,15.5064
,,,-9.548557e-05,22.5688
,,,-9.543557e-05,20.3217
,,,-9.538557e-05,20.3217
,,,-9.533557e-05,20.3217
,,,-9.528557e-05,21.2848
,,,-9.523557e-05,20.3217
,,,-9.518557e-05,18.0745
,,,-9.513557e-05,14.2223
,,,-9.508557e-05,20.3217
,,,-9.503557e-05,19.0376
,,,-9.498557e-05,19.0376
,,,-9.493557e-05,17.7535
,,,-9.488557e-05,22.5688
,,,-9.483557e-05,15.5064
,,,-9.478557e-05,25.137
,,,-9.473557e-05,20.3217
,,,-9.468557e-05,22.5688
,,,-9.463557e-05,14.2223
,,,-9.458557e-05,23.8529
,,,-9.453557e-05,20.3217
,,,-9.448557e-05,20.3217
,,,-9.443557e-05,17.7535
,,,-9.438557e-05,21.6058
,,,-9.433557e-05,17.7535
,,,-9.428557e-05,23.8529
,,,-9.423557e-05,16.7904
,,,-9.418557e-05,21.6058
,,,-9.413557e-05,20.3217
,,,-9.408557e-05,20.3217
,,,-9.403557e-05,19.0376
,,,-9.398557e-05,19.0376
,,,-9.393557e-05,20.3217
,,,-9.388557e-05,23.8529
,,,-9.383557e-05,19.0376
,,,-9.378557e-05,21.6058
,,,-9.373557e-05,21.2848
,,,-9.368557e-05,24.816
,,,-9.363557e-05,16.7904
,,,-9.358557e-05,26.4211
,,,-9.353557e-05,17.7535
,,,-9.348557e-05,23.8529
,,,-9.343557e-05,19.0376
,,,-9.338557e-05,19.0376
,,,-9.333557e-05,20.3217
,,,-9.328557e-05,22.5688
,,,-9.323557e-05,16.7904
,,,-9.318557e-05,22.5688
,,,-9.313557e-05,22.5688
,,,-9.308557e-05,21.2848
,,,-9.303557e-05,22.5688
,,,-9.298557e-05,21.6058
,,,-9.293557e-05,22.5688
,,,-9.288557e-05,21.2848
,,,-9.283557e-05,17.7535
,,,-9.278557e-05,18.0745
,,,-9.273557e-05,19.0376
,,,-9.268557e-05,22.5688
,,,-9.263557e-05,20.3217
,,,-9.258557e-05,20.3217
,,,-9.253557e-05,20.3217
,,,-9.248557e-05,22.5688
,,,-9.243557e-05,17.7535
,,,-9.238557e-05,19.0376
,,,-9.233557e-05,23.8529
,,,-9.228557e-05,22.5688
,,,-9.223557e-05,16.7904
,,,-9.218557e-05,21.6058
,,,-9.213557e-05,19.0376
,,,-9.208557e-05,22.5688
,,,-9.203557e-05,16.7904
,,,-9.198557e-05,20.3217
,,,-9.193557e-05,17.7535
,,,-9.188557e-05,23.8529
,,,-9.183557e-05,20.3217
,,,-9.178557e-05,21.6058
,,,-9.173557e-05,22.5688
,,,-9.168557e-05,20.3217
,,,-9.163557e-05,20.3217
,,,-9.158557e-05,19.3586
,,,-9.153557e-05,17.7535
,,,-9.148557e-05,17.7535
,,,-9.143557e-05,14.2223
,,,-9.138557e-05,21.6058
,,,-9.133557e-05,16.7904
,,,-9.128557e-05,19.0376
,,,-9.123557e-05,17.7535
,,,-9.118557e-05,19.0376
,,,-9.113557e-05,17.7535
,,,-9.108557e-05,23.8529
,,,-9.103557e-05,19.0376
,,,-9.098557e-05,21.6058
,,,-9.093557e-05,19.0376
,,,-9.088557e-05,22.5688
,,,-9.083557e-05,19.0376
,,,-9.078557e-05,19.0376
,,,-9.073557e-05,16.4694
,,,-9.068557e-05,21.2848
,,,-9.063557e-05,21.6058
,,,-9.058557e-05,22.5688
,,,-9.053557e-05,21.2848
,,,-9.048557e-05,23.8529
,,,-9.043557e-05,19.0376
,,,-9.038557e-05,19.0376
,,,-9.033557e-05,20.3217
,,,-9.028557e-05,22.5688
,,,-9.023557e-05,20.3217
,,,-9.018557e-05,25.137
,,,-9.013557e-05,21.2848
,,,-9.008557e-05,22.5688
,,,-9.003557e-05,14.2223
,,,-8.998557e-05,19.0376
,,,-8.993557e-05,19.0376
,,,-8.988557e-05,21.6058
,,,-8.983557e-05,16.7904
,,,-8.978557e-05,20.3217
,,,-8.973557e-05,19.0376
,,,-8.968557e-05,22.5688
,,,-8.963557e-05,16.4694
,,,-8.958557e-05,26.4211
,,,-8.953557e-05,20.3217
,,,-8.948557e-05,22.5688
,,,-8.943557e-05,18.0745
,,,-8.938557e-05,18.0745
,,,-8.933557e-05,19.0376
,,,-8.928557e-05,21.2848
,,,-8.923557e-05,19.0376
,,,-8.918557e-05,20.3217
,,,-8.913557e-05,21.6058
,,,-8.908557e-05,20.3217
,,,-8.903557e-05,21.6058
,,,-8.898557e-05,23.8529
,,,-8.893557e-05,17.7535
,,,-8.888557e-05,22.5688
,,,-8.883557e-05,20.3217
,,,-8.878557e-05,21.6058
,,,-8.873557e-05,20.3217
,,,-8.868557e-05,19.0376
,,,-8.863557e-05,14.2223
,,,-8.858557e-05,20.3217
,,,-8.853557e-05,20.3217
,,,-8.848557e-05,20.3217
,,,-8.843557e-05,15.5064
,,,-8.838557e-05,19.0376
,,,-8.833557e-05,21.6058
,,,-8.828557e-05,20.0007
,,,-8.823557e-05,21.6058
,,,-8.818557e-05,20.3217
,,,-8.813557e-05,19.0376
,,,-8.808557e-05,19.0376
,,,-8.803557e-05,22.5688
,,,-8.798557e-05,19.0376
,,,-8.793557e-05,17.7535
,,,-8.788557e-05,25.137
,,,-8.783557e-05,17.7535
,,,-8.778557e-05,19.0376
,,,-8.773557e-05,20.3217
,,,-8.768557e-05,28.6683
,,,-8.763557e-05,16.4694
,,,-8.758557e-05,18.0745
,,,-8.753557e-05,17.7535
,,,-8.748557e-05,21.2848
,,,-8.743557e-05,19.0376
,,,-8.738557e-05,21.6058
,,,-8.733557e-05,21.2848
,,,-8.728557e-05,17.7535
,,,-8.723557e-05,19.0376
,,,-8.718557e-05,20.3217
,,,-8.713557e-05,22.5688
,,,-8.708557e-05,20.3217
,,,-8.703557e-05,15.5064
,,,-8.698557e-05,25.137
,,,-8.693557e-05,20.3217
,,,-8.688557e-05,24.816
,,,-8.683557e-05,15.5064
,,,-8.678557e-05,21.6058
,,,-8.673557e-05,20.3217
,,,-8.668557e-05,22.5688
,,,-8.663557e-05,17.7535
,,,-8.658557e-05,20.3217
,,,-8.653557e-05,19.0376
,,,-8.648557e-05,23.8529
,,,-8.643557e-05,18.0745
,,,-8.638557e-05,20.3217
,,,-8.633557e-05,21.2848
,,,-8.628557e-05,19.0376
,,,-8.623557e-05,16.7904
,,,-8.618557e-05,17.7535
,,,-8.613557e-05,22.5688
,,,-8.608557e-05,20.3217
,,,-8.603557e-05,19.0376
,,,-8.598557e-05,20.3217
,,,-8.593557e-05,19.0376
,,,-8.588557e-05,20.3217
,,,-8.583557e-05,16.7904
,,,-8.578557e-05,20.3217
,,,-8.573557e-05,15.5064
,,,-8.568557e-05,16.4694
,,,-8.563557e-05,19.0376
,,,-8.558557e-05,22.8899
,,,-8.553557e-05,20.3217
,,,-8.548557e-05,23.8529
,,,-8.543557e-05,16.4694
,,,-8.538557e-05,20.3217
,,,-8.533557e-05,16.7904
,,,-8.528557e-05,19.0376
,,,-8.523557e-05,19.0376
,,,-8.518557e-05,19.0376
,,,-8.513557e-05,21.6058
,,,-8.508557e-05,22.5688
,,,-8.503557e-05,20.3217
,,,-8.498557e-05,20.3217
,,,-8.493557e-05,16.7904
,,,-8.488557e-05,19.0376
,,,-8.483557e-05,22.5688
,,,-8.478557e-05,20.3217
,,,-8.473557e-05,20.3217
,,,-8.468557e-05,21.6058
,,,-8.463557e-05,19.0376
,,,-8.458557e-05,20.3217
,,,-8.453557e-05,21.2848
,,,-8.448557e-05,23.8529
,,,-8.443557e-05,18.0745
,,,-8.438557e-05,23.8529
,,,-8.433557e-05,21.6058
,,,-8.428557e-05,22.5688
,,,-8.423557e-05,20.3217
,,,-8.418557e-05,25.137
,,,-8.413557e-05,20.3217
,,,-8.408557e-05,27.3842
,,,-8.403557e-05,17.7535
,,,-8.398557e-05,22.8899
,,,-8.393557e-05,21.6058
,,,-8.388557e-05,22.5688
,,,-8.383557e-05,20.3217
,,,-8.378557e-05,20.3217
,,,-8.373557e-05,19.0376
,,,-8.368557e-05,25.137
,,,-8.363557e-05,22.5688
,,,-8.358557e-05,22.8899
,,,-8.353557e-05,25.137
,,,-8.348557e-05,22.5688
,,,-8.343557e-05,17.7535
,,,-8.338557e-05,23.8529
,,,-8.333557e-05,22.5688
,,,-8.328557e-05,22.5688
,,,-8.323557e-05,19.0376
,,,-8.318557e-05,18.0745
,,,-8.313557e-05,22.5688
,,,-8.308557e-05,23.8529
,,,-8.303557e-05,15.5064
,,,-8.298557e-05,21.6058
,,,-8.293557e-05,23.8529
,,,-8.288557e-05,25.137
,,,-8.283557e-05,16.7904
,,,-8.278557e-05,19.0376
,,,-8.273557e-05,22.5688
,,,-8.268557e-05,20.3217
,,,-8.263557e-05,20.3217
,,,-8.258557e-05,20.3217
,,,-8.253557e-05,16.7904
,,,-8.248557e-05,23.8529
,,,-8.243557e-05,16.7904
,,,-8.238557e-05,19.0376
,,,-8.233557e-05,19.0376
,,,-8.228557e-05,20.3217
,,,-8.223557e-05,17.7535
,,,-8.218557e-05,23.8529
,,,-8.213557e-05,17.7535
,,,-8.208557e-05,23.8529
,,,-8.203557e-05,20.3217
,,,-8.198557e-05,19.0376
,,,-8.193557e-05,25.137
,,,-8.188557e-05,23.8529
,,,-8.183557e-05,21.6058
,,,-8.178557e-05,22.5688
,,,-8.173557e-05,21.2848
,,,-8.168557e-05,24.816
,,,-8.163557e-05,20.3217
,,,-8.158557e-05,25.137
,,,-8.153557e-05,21.2848
,,,-8.148557e-05,23.8529
,,,-8.143557e-05,16.7904
,,,-8.138557e-05,22.5688
,,,-8.133557e-05,17.7535
,,,-8.128557e-05,27.3842
,,,-8.123557e-05,19.0376
,,,-8.118557e-05,20.3217
,,,-8.113557e-05,19.0376
,,,-8.108557e-05,23.8529
,,,-8.103557e-05,16.7904
,,,-8.098557e-05,19.0376
,,,-8.093557e-05,21.6058
,,,-8.088557e-05,20.3217
,,,-8.083557e-05,16.7904
,,,-8.078557e-05,21.6058
,,,-8.073557e-05,22.5688
,,,-8.068557e-05,23.5319
,,,-8.063557e-05,16.7904
,,,-8.058557e-05,19.0376
,,,-8.053557e-05,19.0376
,,,-8.048557e-05,23.8529
,,,-8.043557e-05,21.6058
,,,-8.038557e-05,20.3217
,,,-8.033557e-05,21.2848
,,,-8.028557e-05,23.8529
,,,-8.023557e-05,22.5688
,,,-8.018557e-05,22.8899
,,,-8.013557e-05,18.0745
,,,-8.008557e-05,22.5688
,,,-8.003557e-05,17.7535
,,,-7.998557e-05,21.6058
,,,-7.993557e-05,20.3217
,,,-7.988557e-05,20.3217
,,,-7.983557e-05,15.5064
,,,-7.978557e-05,19.0376
,,,-7.973557e-05,22.5688
,,,-7.968557e-05,25.137
,,,-7.963557e-05,19.0376
,,,-7.958557e-05,25.137
,,,-7.953557e-05,22.5688
,,,-7.948557e-05,20.3217
,,,-7.943557e-05,20.3217
,,,-7.938557e-05,23.8529
,,,-7.933557e-05,22.5688
,,,-7.928557e-05,20.3217
,,,-7.923557e-05,16.7904
,,,-7.918557e-05,22.5688
,,,-7.913557e-05,17.7535
,,,-7.908557e-05,27.3842
,,,-7.903557e-05,20.3217
,,,-7.898557e-05,21.6058
,,,-7.893557e-05,20.3217
,,,-7.888557e-05,23.8529
,,,-7.883557e-05,20.3217
,,,-7.878557e-05,18.0745
,,,-7.873557e-05,22.5688
,,,-7.868557e-05,23.8529
,,,-7.863557e-05,15.5064
,,,-7.858557e-05,21.6058
,,,-7.853557e-05,22.5688
,,,-7.848557e-05,21.2848
,,,-7.843557e-05,17.7535
,,,-7.838557e-05,21.6058
,,,-7.833557e-05,16.7904
,,,-7.828557e-05,22.5688
,,,-7.823557e-05,20.3217
,,,-7.818557e-05,20.3217
,,,-7.813557e-05,22.5688
,,,-7.808557e-05,21.6058
,,,-7.803557e-05,22.5688
,,,-7.798557e-05,16.7904
,,,-7.793557e-05,22.5688
,,,-7.788557e-05,27.3842
,,,-7.783557e-05,21.6058
,,,-7.778557e-05,19.0376
,,,-7.773557e-05,19.0376
,,,-7.768557e-05,20.3217
,,,-7.763557e-05,19.0376
,,,-7.758557e-05,21.6058
,,,-7.753557e-05,20.3217
,,,-7.748557e-05,19.0376
,,,-7.743557e-05,19.0376
,,,-7.738557e-05,22.5688
,,,-7.733557e-05,20.3217
,,,-7.728557e-05,26.1001
,,,-7.723557e-05,22.5688
,,,-7.718557e-05,18.0745
,,,-7.713557e-05,21.6058
,,,-7.708557e-05,26.1001
,,,-7.703557e-05,17.7535
,,,-7.698557e-05,20.3217
,,,-7.693557e-05,20.3217
,,,-7.688557e-05,23.5319
,,,-7.683557e-05,18.0745
,,,-7.678557e-05,20.3217
,,,-7.673557e-05,21.6058
,,,-7.668557e-05,20.3217
,,,-7.663557e-05,20.3217
,,,-7.658557e-05,22.5688
,,,-7.653557e-05,25.137
,,,-7.648557e-05,22.5688
,,,-7.643557e-05,17.7535
,,,-7.638557e-05,20.3217
,,,-7.633557e-05,19.0376
,,,-7.628557e-05,17.7535
,,,-7.623557e-05,18.0745
,,,-7.618557e-05,23.8529
,,,-7.613557e-05,20.3217
,,,-7.608557e-05,19.0376
,,,-7.603557e-05,16.7904
,,,-7.598557e-05,23.8529
,,,-7.593557e-05,21.2848
,,,-7.588557e-05,22.5688
,,,-7.583557e-05,20.3217
,,,-7.578557e-05,21.6058
,,,-7.573557e-05,20.3217
,,,-7.568557e-05,22.5688
,,,-7.563557e-05,16.7904
,,,-7.558557e-05,19.0376
,,,-7.553557e-05,20.3217
,,,-7.548557e-05,24.816
,,,-7.543557e-05,20.3217
,,,-7.538557e-05,17.7535
,,,-7.533557e-05,22.5688
,,,-7.528557e-05,22.5688
,,,-7.523557e-05,21.2848
,,,-7.518557e-05,20.3217
,,,-7.513557e-05,20.3217
,,,-7.508557e-05,23.8529
,,,-7.503557e-05,21.6058
,,,-7.498557e-05,21.6058
,,,-7.493557e-05,15.5064
,,,-7.488557e-05,21.2848
,,,-7.483557e-05,18.0745
,,,-7.478557e-05,20.3217
,,,-7.473557e-05,14.2223
,,,-7.468557e-05,22.5688
,,,-7.463557e-05,19.0376
,,,-7.458557e-05,23.8529
,,,-7.453557e-05,21.2848
,,,-7.448557e-05,26.1001
,,,-7.443557e-05,20.3217
,,,-7.438557e-05,20.3217
,,,-7.433557e-05,16.7904
,,,-7.428557e-05,23.8529
,,,-7.423557e-05,17.7535
,,,-7.418557e-05,21.6058
,,,-7.413557e-05,21.6058
,,,-7.408557e-05,22.5688
,,,-7.403557e-05,20.3217
,,,-7.398557e-05,21.6058
,,,-7.393557e-05,19.0376
,,,-7.388557e-05,21.2848
,,,-7.383557e-05,21.6058
,,,-7.378557e-05,21.6058
,,,-7.373557e-05,19.0376
,,,-7.368557e-05,25.137
,,,-7.363557e-05,19.0376
,,,-7.358557e-05,19.0376
,,,-7.353557e-05,22.5688
,,,-7.348557e-05,21.6058
,,,-7.343557e-05,15.5064
,,,-7.338557e-05,19.0376
,,,-7.333557e-05,20.3217
,,,-7.328557e-05,20.3217
,,,-7.323557e-05,13.2592
,,,-7.318557e-05,20.3217
,,,-7.313557e-05,15.5064
,,,-7.308557e-05,21.2848
,,,-7.303557e-05,16.7904
,,,-7.298557e-05,20.3217
,,,-7.293557e-05,21.2848
,,,-7.288557e-05,22.5688
,,,-7.283557e-05,17.7535
,,,-7.278557e-05,20.3217
,,,-7.273557e-05,19.0376
,,,-7.268557e-05,19.0376
,,,-7.263557e-05,19.0376
,,,-7.258557e-05,16.7904
,,,-7.253557e-05,22.5688
,,,-7.248557e-05,19.0376
,,,-7.243557e-05,18.0745
,,,-7.238557e-05,20.3217
,,,-7.233557e-05,17.7535
,,,-7.228557e-05,22.5688
,,,-7.223557e-05,15.5064
,,,-7.218557e-05,20.3217
,,,-7.213557e-05,19.0376
,,,-7.208557e-05,21.2848
,,,-7.203557e-05,19.0376
,,,-7.198557e-05,20.3217
,,,-7.193557e-05,21.2848
,,,-7.188557e-05,21.2848
,,,-7.183557e-05,20.3217
,,,-7.178557e-05,21.6058
,,,-7.173557e-05,19.0376
,,,-7.168557e-05,19.0376
,,,-7.163557e-05,19.3586
,,,-7.158557e-05,18.0745
,,,-7.153557e-05,20.3217
,,,-7.148557e-05,22.5688
,,,-7.143557e-05,14.2223
,,,-7.138557e-05,21.6058
,,,-7.133557e-05,19.0376
,,,-7.128557e-05,20.3217
,,,-7.123557e-05,19.0376
,,,-7.118557e-05,20.3217
,,,-7.113557e-05,17.7535
,,,-7.108557e-05,22.5688
,,,-7.103557e-05,17.7535
,,,-7.098557e-05,21.6058
,,,-7.093557e-05,17.7535
,,,-7.088557e-05,23.8529
,,,-7.083557e-05,21.6058
,,,-7.078557e-05,22.8899
,,,-7.073557e-05,20.3217
,,,-7.068557e-05,21.2848
,,,-7.063557e-05,19.0376
,,,-7.058557e-05,22.8899
,,,-7.053557e-05,20.3217
,,,-7.048557e-05,21.2848
,,,-7.043557e-05,17.7535
,,,-7.038557e-05,21.6058
,,,-7.033557e-05,19.0376
,,,-7.028557e-05,23.8529
,,,-7.023557e-05,19.0376
,,,-7.018557e-05,23.8529
,,,-7.013557e-05,22.8899
,,,-7.008557e-05,22.5688
,,,-7.003557e-05,17.7535
,,,-6.998557e-05,20.3217
,,,-6.993557e-05,20.3217
,,,-6.988557e-05,19.0376
,,,-6.983557e-05,20.3217
,,,-6.978557e-05,20.3217
,,,-6.973557e-05,19.0376
,,,-6.968557e-05,19.0376
,,,-6.963557e-05,19.0376
,,,-6.958557e-05,17.7535
,,,-6.953557e-05,19.0376
,,,-6.948557e-05,22.5688
,,,-6.943557e-05,16.7904
,,,-6.938557e-05,21.6058
,,,-6.933557e-05,21.6058
,,,-6.928557e-05,22.5688
,,,-6.923557e-05,19.0376
,,,-6.918557e-05,20.3217
,,,-6.913557e-05,22.5688
,,,-6.908557e-05,22.5688
,,,-6.903557e-05,16.7904
,,,-6.898557e-05,22.8899
,,,-6.893557e-05,20.3217
,,,-6.888557e-05,23.8529
,,,-6.883557e-05,16.7904
,,,-6.878557e-05,22.8899
,,,-6.873557e-05,22.5688
,,,-6.868557e-05,24.816
,,,-6.863557e-05,19.0376
,,,-6.858557e-05,21.6058
,,,-6.853557e-05,21.2848
,,,-6.848557e-05,21.2848
,,,-6.843557e-05,15.5064
,,,-6.838557e-05,18.0745
,,,-6.833557e-05,19.0376
,,,-6.828557e-05,23.8529
,,,-6.823557e-05,19.3586
,,,-6.818557e-05,21.6058
,,,-6.813557e-05,17.7535
,,,-6.808557e-05,24.816
,,,-6.803557e-05,16.7904
,,,-6.798557e-05,22.8899
,,,-6.793557e-05,19.0376
,,,-6.788557e-05,22.5688
,,,-6.783557e-05,17.7535
,,,-6.778557e-05,17.7535
,,,-6.773557e-05,19.0376
,,,-6.768557e-05,24.816
,,,-6.763557e-05,19.0376
,,,-6.758557e-05,25.137
,,,-6.753557e-05,20.3217
,,,-6.748557e-05,23.8529
,,,-6.743557e-05,19.0376
,,,-6.738557e-05,23.8529
,,,-6.733557e-05,15.5064
,,,-6.728557e-05,19.0376
,,,-6.723557e-05,19.0376
,,,-6.718557e-05,18.0745
,,,-6.713557e-05,20.3217
,,,-6.708557e-05,21.6058
,,,-6.703557e-05,22.5688
,,,-6.698557e-05,20.3217
,,,-6.693557e-05,19.0376
,,,-6.688557e-05,21.2848
,,,-6.683557e-05,15.5064
,,,-6.678557e-05,25.137
,,,-6.673557e-05,20.0007
,,,-6.668557e-05,21.2848
,,,-6.663557e-05,21.6058
,,,-6.658557e-05,22.8899
,,,-6.653557e-05,21.2848
,,,-6.648557e-05,23.8529
,,,-6.643557e-05,19.0376
,,,-6.638557e-05,18.0745
,,,-6.633557e-05,19.0376
,,,-6.628557e-05,21.2848
,,,-6.623557e-05,19.0376
,,,-6.618557e-05,18.0745
,,,-6.613557e-05,19.0376
,,,-6.608557e-05,23.8529
,,,-6.603557e-05,16.7904
,,,-6.598557e-05,19.0376
,,,-6.593557e-05,16.7904
,,,-6.588557e-05,19.0376
,,,-6.583557e-05,19.0376
,,,-6.578557e-05,20.3217
,,,-6.573557e-05,21.2848
,,,-6.568557e-05,22.5688
,,,-6.563557e-05,20.3217
,,,-6.558557e-05,22.8899
,,,-6.553557e-05,20.0007
,,,-6.548557e-05,22.5688
,,,-6.543557e-05,16.7904
,,,-6.538557e-05,20.3217
,,,-6.533557e-05,21.2848
,,,-6.528557e-05,21.2848
,,,-6.523557e-05,20.3217
,,,-6.518557e-05,21.6058
,,,-6.513557e-05,16.7904
,,,-6.508557e-05,21.2848
,,,-6.503557e-05,19.0376
,,,-6.498557e-05,22.5688
,,,-6.493557e-05,19.0376
,,,-6.488557e-05,22.5688
,,,-6.483557e-05,17.7535
,,,-6.478557e-05,20.3217
,,,-6.473557e-05,22.5688
,,,-6.468557e-05,22.5688
,,,-6.463557e-05,16.7904
,,,-6.458557e-05,22.5688
,,,-6.453557e-05,20.3217
,,,-6.448557e-05,19.0376
,,,-6.443557e-05,16.7904
,,,-6.438557e-05,21.6058
,,,-6.433557e-05,20.3217
,,,-6.428557e-05,20.3217
,,,-6.423557e-05,17.7535
,,,-6.418557e-05,21.6058
,,,-6.413557e-05,17.7535
,,,-6.408557e-05,22.5688
,,,-6.403557e-05,17.7535
,,,-6.398557e-05,20.3217
,,,-6.393557e-05,17.7535
,,,-6.388557e-05,22.5688
,,,-6.383557e-05,20.3217
,,,-6.378557e-05,20.3217
,,,-6.373557e-05,19.0376
,,,-6.368557e-05,21.2848
,,,-6.363557e-05,21.2848
,,,-6.358557e-05,21.6058
,,,-6.353557e-05,19.0376
,,,-6.348557e-05,22.5688
,,,-6.343557e-05,19.0376
,,,-6.338557e-05,17.7535
,,,-6.333557e-05,17.7535
,,,-6.328557e-05,21.2848
,,,-6.323557e-05,19.0376
,,,-6.318557e-05,19.0376
,,,-6.313557e-05,21.2848
,,,-6.308557e-05,22.5688
,,,-6.303557e-05,23.8529
,,,-6.298557e-05,21.6058
,,,-6.293557e-05,22.5688
,,,-6.288557e-05,22.5688
,,,-6.283557e-05,16.7904
,,,-6.278557e-05,20.3217
,,,-6.273557e-05,21.2848
,,,-6.268557e-05,23.8529
,,,-6.263557e-05,22.5688
,,,-6.258557e-05,20.3217
,,,-6.253557e-05,19.0376
,,,-6.248557e-05,22.5688
,,,-6.243557e-05,15.5064
,,,-6.238557e-05,16.7904
,,,-6.233557e-05,15.5064
,,,-6.228557e-05,19.0376
,,,-6.223557e-05,16.7904
,,,-6.218557e-05,22.5688
,,,-6.213557e-05,12.9382
,,,-6.208557e-05,24.816
,,,-6.203557e-05,16.4694
,,,-6.198557e-05,25.137
,,,-6.193557e-05,20.0007
,,,-6.188557e-05,23.8529
,,,-6.183557e-05,19.0376
,,,-6.178557e-05,17.7535
,,,-6.173557e-05,17.7535
,,,-6.168557e-05,20.3217
,,,-6.163557e-05,22.5688
,,,-6.158557e-05,19.0376
,,,-6.153557e-05,17.7535
,,,-6.148557e-05,24.816
,,,-6.143557e-05,17.7535
,,,-6.138557e-05,21.6058
,,,-6.133557e-05,16.4694
,,,-6.128557e-05,17.7535
,,,-6.123557e-05,19.0376
,,,-6.118557e-05,22.8899
,,,-6.113557e-05,15.5064
,,,-6.108557e-05,21.2848
,,,-6.103557e-05,22.5688
,,,-6.098557e-05,18.0745
,,,-6.093557e-05,19.0376
,,,-6.088557e-05,22.5688
,,,-6.083557e-05,19.0376
,,,-6.078557e-05,19.0376
,,,-6.073557e-05,21.6058
,,,-6.068557e-05,20.3217
,,,-6.063557e-05,19.0376
,,,-6.058557e-05,21.6058
,,,-6.053557e-05,20.3217
,,,-6.048557e-05,16.4694
,,,-6.043557e-05,15.5064
,,,-6.038557e-05,18.0745
,,,-6.033557e-05,19.0376
