TVS_10microH_Vin=0_Vout=0/I_rest--140k 3--00002.csv

"Record Length",10002,"Points",-1.000189e-05,35.7949
"Sample Interval",1e-08,s,-9.991893e-06,36.2947
"Trigger Point",1000,"Samples",-9.981893e-06,35.8949
"Trigger Time",0.189265,s,-9.971893e-06,37.1943
,,,-9.961893e-06,37.0943
"Horizontal Offset",-1.00019e-05,s,-9.951893e-06,38.0938
,,,-9.941893e-06,37.794
,,,-9.931893e-06,38.6061
,,,-9.921893e-06,38.4062
,,,-9.911893e-06,38.706
,,,-9.901893e-06,39.1058
,,,-9.891893e-06,39.0059
,,,-9.881893e-06,38.806
,,,-9.871893e-06,39.3057
,,,-9.861893e-06,39.7055
,,,-9.851893e-06,40.4052
,,,-9.841893e-06,39.9054
,,,-9.831893e-06,40.6051
,,,-9.821893e-06,40.6051
,,,-9.811893e-06,41.4047
,,,-9.801893e-06,42.0044
,,,-9.791893e-06,42.2043
,,,-9.781893e-06,42.804
,,,-9.771893e-06,43.3038
,,,-9.761893e-06,43.2038
,,,-9.751893e-06,43.8035
,,,-9.741893e-06,43.7036
,,,-9.731893e-06,44.1034
,,,-9.721893e-06,43.5037
,,,-9.711893e-06,44.1034
,,,-9.701893e-06,44.803
,,,-9.691893e-06,45.3028
,,,-9.681893e-06,45.1029
,,,-9.671893e-06,45.2028
,,,-9.661893e-06,45.3028
,,,-9.651893e-06,46.1024
,,,-9.641893e-06,46.4022
,,,-9.631893e-06,46.1024
,,,-9.621893e-06,46.3023
,,,-9.611893e-06,46.802
,,,-9.601893e-06,47.2019
,,,-9.591893e-06,47.4018
,,,-9.581893e-06,47.6017
,,,-9.571893e-06,48.0015
,,,-9.561893e-06,48.2014
,,,-9.551893e-06,48.4013
,,,-9.541893e-06,48.7011
,,,-9.531893e-06,49.7006
,,,-9.521893e-06,49.2009
,,,-9.511893e-06,49.7006
,,,-9.501893e-06,50.0005
,,,-9.491893e-06,51
,,,-9.481893e-06,50.5002
,,,-9.471893e-06,50.9
,,,-9.461893e-06,50.9
,,,-9.451893e-06,51.6996
,,,-9.441893e-06,51.3998
,,,-9.431893e-06,52.0994
,,,-9.421893e-06,52.2994
,,,-9.411893e-06,52.3993
,,,-9.401893e-06,52.1994
,,,-9.391893e-06,52.5992
,,,-9.381893e-06,52.8991
,,,-9.371893e-06,53.5987
,,,-9.361893e-06,53.099
,,,-9.351893e-06,53.5987
,,,-9.341893e-06,54.1984
,,,-9.331893e-06,54.5982
,,,-9.321893e-06,54.4983
,,,-9.311893e-06,54.998
,,,-9.301893e-06,55.3978
,,,-9.291893e-06,55.7976
,,,-9.281893e-06,56.0975
,,,-9.271893e-06,56.0975
,,,-9.261893e-06,56.5972
,,,-9.251893e-06,56.997
,,,-9.241893e-06,57.4968
,,,-9.231893e-06,57.3969
,,,-9.221893e-06,57.6967
,,,-9.211893e-06,58.2964
,,,-9.201893e-06,57.9966
,,,-9.191893e-06,58.5963
,,,-9.181893e-06,58.8961
,,,-9.171893e-06,58.8961
,,,-9.161893e-06,58.7962
,,,-9.151893e-06,59.2959
,,,-9.141893e-06,59.2959
,,,-9.131893e-06,60.0955
,,,-9.121893e-06,59.8956
,,,-9.111893e-06,60.2954
,,,-9.101893e-06,60.6952
,,,-9.091893e-06,60.8951
,,,-9.081893e-06,60.9951
,,,-9.071893e-06,61.6947
,,,-9.061893e-06,61.7947
,,,-9.051893e-06,62.5943
,,,-9.041893e-06,61.9946
,,,-9.031893e-06,62.7942
,,,-9.021893e-06,63.294
,,,-9.011893e-06,63.3939
,,,-9.001893e-06,63.8062
,,,-8.991893e-06,63.9062
,,,-8.981893e-06,64.4059
,,,-8.971893e-06,64.306
,,,-8.961893e-06,64.7058
,,,-8.951893e-06,65.5054
,,,-8.941893e-06,65.4054
,,,-8.931893e-06,65.5054
,,,-8.921893e-06,65.6053
,,,-8.911893e-06,66.205
,,,-8.901893e-06,65.9052
,,,-8.891893e-06,66.9047
,,,-8.881893e-06,66.4049
,,,-8.871893e-06,66.8047
,,,-8.861893e-06,66.9047
,,,-8.851893e-06,67.7043
,,,-8.841893e-06,67.4044
,,,-8.831893e-06,68.0041
,,,-8.821893e-06,68.0041
,,,-8.811893e-06,69.0037
,,,-8.801893e-06,68.304
,,,-8.791893e-06,69.0037
,,,-8.781893e-06,69.5034
,,,-8.771893e-06,69.6034
,,,-8.761893e-06,70.1031
,,,-8.751893e-06,70.6029
,,,-8.741893e-06,70.6029
,,,-8.731893e-06,71.2026
,,,-8.721893e-06,71.3025
,,,-8.711893e-06,71.3025
,,,-8.701893e-06,71.4025
,,,-8.691893e-06,71.5024
,,,-8.681893e-06,71.7023
,,,-8.671893e-06,72.5019
,,,-8.661893e-06,72.5019
,,,-8.651893e-06,73.0017
,,,-8.641893e-06,72.5019
,,,-8.631893e-06,73.3016
,,,-8.621893e-06,73.1016
,,,-8.611893e-06,74.2011
,,,-8.601893e-06,73.7014
,,,-8.591893e-06,74.501
,,,-8.581893e-06,74.3011
,,,-8.571893e-06,75.3006
,,,-8.561893e-06,75.2006
,,,-8.551893e-06,76.0002
,,,-8.541893e-06,75.9003
,,,-8.531893e-06,76.1002
,,,-8.521893e-06,76.3001
,,,-8.511893e-06,76.5999
,,,-8.501893e-06,77.0997
,,,-8.491893e-06,77.3995
,,,-8.481893e-06,77.3995
,,,-8.471893e-06,77.6994
,,,-8.461893e-06,77.8993
,,,-8.451893e-06,78.2991
,,,-8.441893e-06,78.2991
,,,-8.431893e-06,78.6989
,,,-8.421893e-06,78.8988
,,,-8.411893e-06,79.4985
,,,-8.401893e-06,79.3986
,,,-8.391893e-06,79.7984
,,,-8.381893e-06,79.8983
,,,-8.371893e-06,80.3981
,,,-8.361893e-06,80.3981
,,,-8.351893e-06,80.598
,,,-8.341893e-06,80.8978
,,,-8.331893e-06,81.5975
,,,-8.321893e-06,81.6974
,,,-8.311893e-06,81.9973
,,,-8.301893e-06,82.1972
,,,-8.291893e-06,82.6969
,,,-8.281893e-06,82.497
,,,-8.271893e-06,82.7969
,,,-8.261893e-06,83.0967
,,,-8.251893e-06,83.6965
,,,-8.241893e-06,83.9963
,,,-8.231893e-06,84.1962
,,,-8.221893e-06,84.0963
,,,-8.211893e-06,84.696
,,,-8.201893e-06,84.4961
,,,-8.191893e-06,85.1957
,,,-8.181893e-06,85.2957
,,,-8.171893e-06,85.6955
,,,-8.161893e-06,85.6955
,,,-8.151893e-06,85.7954
,,,-8.141893e-06,86.0953
,,,-8.131893e-06,86.7949
,,,-8.121893e-06,86.7949
,,,-8.111893e-06,87.0948
,,,-8.101893e-06,86.8949
,,,-8.091893e-06,87.6945
,,,-8.081893e-06,87.4946
,,,-8.071893e-06,88.2942
,,,-8.061893e-06,87.8944
,,,-8.051893e-06,88.794
,,,-8.041893e-06,88.4941
,,,-8.031893e-06,89.4062
,,,-8.021893e-06,89.2062
,,,-8.011893e-06,89.806
,,,-8.001893e-06,89.9059
,,,-7.991893e-06,90.1058
,,,-7.981893e-06,90.4057
,,,-7.971893e-06,90.8055
,,,-7.961893e-06,90.7055
,,,-7.951893e-06,91.3052
,,,-7.941893e-06,91.3052
,,,-7.931893e-06,91.705
,,,-7.921893e-06,92.0049
,,,-7.911893e-06,92.0049
,,,-7.901893e-06,92.4047
,,,-7.891893e-06,92.5046
,,,-7.881893e-06,92.6046
,,,-7.871893e-06,93.4042
,,,-7.861893e-06,93.1043
,,,-7.851893e-06,94.0039
,,,-7.841893e-06,93.9039
,,,-7.831893e-06,94.0039
,,,-7.821893e-06,94.0039
,,,-7.811893e-06,95.2033
,,,-7.801893e-06,95.1034
,,,-7.791893e-06,95.2033
,,,-7.781893e-06,95.6031
,,,-7.771893e-06,96.0029
,,,-7.761893e-06,95.903
,,,-7.751893e-06,96.3028
,,,-7.741893e-06,96.6026
,,,-7.731893e-06,96.9025
,,,-7.721893e-06,96.8025
,,,-7.711893e-06,97.4022
,,,-7.701893e-06,97.4022
,,,-7.691893e-06,97.802
,,,-7.681893e-06,97.802
,,,-7.671893e-06,98.4017
,,,-7.661893e-06,98.4017
,,,-7.651893e-06,99.3013
,,,-7.641893e-06,98.9015
,,,-7.631893e-06,99.4012
,,,-7.621893e-06,99.6012
,,,-7.611893e-06,99.901
,,,-7.601893e-06,99.901
,,,-7.591893e-06,100.401
,,,-7.581893e-06,100.501
,,,-7.571893e-06,101
,,,-7.561893e-06,101.2
,,,-7.551893e-06,101.6
,,,-7.541893e-06,101.6
,,,-7.531893e-06,101.9
,,,-7.521893e-06,101.9
,,,-7.511893e-06,102.4
,,,-7.501893e-06,102.6
,,,-7.491893e-06,102.999
,,,-7.481893e-06,102.5
,,,-7.471893e-06,103.799
,,,-7.461893e-06,103.499
,,,-7.451893e-06,103.999
,,,-7.441893e-06,103.899
,,,-7.431893e-06,104.899
,,,-7.421893e-06,104.699
,,,-7.411893e-06,104.899
,,,-7.401893e-06,104.899
,,,-7.391893e-06,105.398
,,,-7.381893e-06,105.298
,,,-7.371893e-06,105.998
,,,-7.361893e-06,105.898
,,,-7.351893e-06,106.598
,,,-7.341893e-06,106.398
,,,-7.331893e-06,107.297
,,,-7.321893e-06,107.097
,,,-7.311893e-06,107.397
,,,-7.301893e-06,107.297
,,,-7.291893e-06,108.197
,,,-7.281893e-06,107.797
,,,-7.271893e-06,108.797
,,,-7.261893e-06,108.497
,,,-7.251893e-06,109.296
,,,-7.241893e-06,109.096
,,,-7.231893e-06,109.996
,,,-7.221893e-06,109.696
,,,-7.211893e-06,109.996
,,,-7.201893e-06,109.896
,,,-7.191893e-06,110.696
,,,-7.181893e-06,110.696
,,,-7.171893e-06,110.796
,,,-7.161893e-06,110.596
,,,-7.151893e-06,111.495
,,,-7.141893e-06,111.495
,,,-7.131893e-06,111.695
,,,-7.121893e-06,111.495
,,,-7.111893e-06,112.495
,,,-7.101893e-06,112.295
,,,-7.091893e-06,113.194
,,,-7.081893e-06,112.795
,,,-7.071893e-06,113.394
,,,-7.061893e-06,113.394
,,,-7.051893e-06,113.794
,,,-7.041893e-06,113.694
,,,-7.031893e-06,114.494
,,,-7.021893e-06,114.594
,,,-7.011893e-06,115.106
,,,-7.001893e-06,114.594
,,,-6.991893e-06,116.006
,,,-6.981893e-06,115.706
,,,-6.971893e-06,116.206
,,,-6.961893e-06,115.806
,,,-6.951893e-06,116.505
,,,-6.941893e-06,116.705
,,,-6.931893e-06,117.005
,,,-6.921893e-06,116.705
,,,-6.911893e-06,117.305
,,,-6.901893e-06,117.405
,,,-6.891893e-06,118.005
,,,-6.881893e-06,117.605
,,,-6.871893e-06,118.604
,,,-6.861893e-06,118.504
,,,-6.851893e-06,119.004
,,,-6.841893e-06,118.604
,,,-6.831893e-06,119.404
,,,-6.821893e-06,119.704
,,,-6.811893e-06,119.904
,,,-6.801893e-06,119.304
,,,-6.791893e-06,120.303
,,,-6.781893e-06,120.204
,,,-6.771893e-06,120.903
,,,-6.761893e-06,120.703
,,,-6.751893e-06,121.203
,,,-6.741893e-06,121.603
,,,-6.731893e-06,121.703
,,,-6.721893e-06,121.303
,,,-6.711893e-06,122.203
,,,-6.701893e-06,122.003
,,,-6.691893e-06,122.902
,,,-6.681893e-06,122.502
,,,-6.671893e-06,122.902
,,,-6.661893e-06,123.002
,,,-6.651893e-06,123.902
,,,-6.641893e-06,123.202
,,,-6.631893e-06,123.502
,,,-6.621893e-06,124.401
,,,-6.611893e-06,124.302
,,,-6.601893e-06,124.701
,,,-6.591893e-06,124.901
,,,-6.581893e-06,125.401
,,,-6.571893e-06,125.101
,,,-6.561893e-06,125.701
,,,-6.551893e-06,125.501
,,,-6.541893e-06,126.401
,,,-6.531893e-06,126.8
,,,-6.521893e-06,126.401
,,,-6.511893e-06,126.301
,,,-6.501893e-06,127.2
,,,-6.491893e-06,127.3
,,,-6.481893e-06,127.4
,,,-6.471893e-06,128
,,,-6.461893e-06,127.6
,,,-6.451893e-06,128.4
,,,-6.441893e-06,128.3
,,,-6.431893e-06,128.699
,,,-6.421893e-06,128.699
,,,-6.411893e-06,129.099
,,,-6.401893e-06,129.599
,,,-6.391893e-06,129.899
,,,-6.381893e-06,129.699
,,,-6.371893e-06,130.399
,,,-6.361893e-06,130.099
,,,-6.351893e-06,130.898
,,,-6.341893e-06,130.798
,,,-6.331893e-06,131.298
,,,-6.321893e-06,131.098
,,,-6.311893e-06,131.498
,,,-6.301893e-06,131.698
,,,-6.291893e-06,131.998
,,,-6.281893e-06,131.998
,,,-6.271893e-06,132.597
,,,-6.261893e-06,132.298
,,,-6.251893e-06,132.797
,,,-6.241893e-06,133.197
,,,-6.231893e-06,133.597
,,,-6.221893e-06,133.497
,,,-6.211893e-06,134.097
,,,-6.201893e-06,133.497
,,,-6.191893e-06,134.297
,,,-6.181893e-06,134.197
,,,-6.171893e-06,134.996
,,,-6.161893e-06,134.696
,,,-6.151893e-06,135.596
,,,-6.141893e-06,135.096
,,,-6.131893e-06,135.696
,,,-6.121893e-06,135.696
,,,-6.111893e-06,136.196
,,,-6.101893e-06,136.096
,,,-6.091893e-06,136.396
,,,-6.081893e-06,136.496
,,,-6.071893e-06,136.995
,,,-6.061893e-06,137.195
,,,-6.051893e-06,137.395
,,,-6.041893e-06,137.695
,,,-6.031893e-06,138.195
,,,-6.021893e-06,138.095
,,,-6.011893e-06,138.595
,,,-6.001893e-06,138.395
,,,-5.991893e-06,139.094
,,,-5.981893e-06,138.994
,,,-5.971893e-06,139.194
,,,-5.961893e-06,139.294
,,,-5.951893e-06,139.694
,,,-5.941893e-06,140.306
,,,-5.931893e-06,140.206
,,,-5.921893e-06,140.506
,,,-5.911893e-06,140.706
,,,-5.901893e-06,140.806
,,,-5.891893e-06,141.506
,,,-5.881893e-06,141.306
,,,-5.871893e-06,141.006
,,,-5.861893e-06,141.805
,,,-5.851893e-06,142.505
,,,-5.841893e-06,142.305
,,,-5.831893e-06,142.305
,,,-5.821893e-06,142.905
,,,-5.811893e-06,142.905
,,,-5.801893e-06,143.005
,,,-5.791893e-06,143.405
,,,-5.781893e-06,143.105
,,,-5.771893e-06,143.904
,,,-5.761893e-06,143.904
,,,-5.751893e-06,144.204
,,,-5.741893e-06,144.804
,,,-5.731893e-06,144.804
,,,-5.721893e-06,144.904
,,,-5.711893e-06,145.204
,,,-5.701893e-06,145.304
,,,-5.691893e-06,145.803
,,,-5.681893e-06,145.704
,,,-5.671893e-06,146.003
,,,-5.661893e-06,146.303
,,,-5.651893e-06,146.303
,,,-5.641893e-06,147.003
,,,-5.631893e-06,147.103
,,,-5.621893e-06,147.103
,,,-5.611893e-06,147.803
,,,-5.601893e-06,147.503
,,,-5.591893e-06,148.102
,,,-5.581893e-06,148.202
,,,-5.571893e-06,148.302
,,,-5.561893e-06,148.402
,,,-5.551893e-06,148.702
,,,-5.541893e-06,148.902
,,,-5.531893e-06,149.802
,,,-5.521893e-06,149.302
,,,-5.511893e-06,149.602
,,,-5.501893e-06,149.602
,,,-5.491893e-06,150.201
,,,-5.481893e-06,150.101
,,,-5.471893e-06,150.501
,,,-5.461893e-06,151.101
,,,-5.451893e-06,151.201
,,,-5.441893e-06,150.801
,,,-5.431893e-06,151.501
,,,-5.421893e-06,151.801
,,,-5.411893e-06,152.1
,,,-5.401893e-06,151.901
,,,-5.391893e-06,152
,,,-5.381893e-06,152.3
,,,-5.371893e-06,152.5
,,,-5.361893e-06,153.2
,,,-5.351893e-06,153.6
,,,-5.341893e-06,153.2
,,,-5.331893e-06,153.7
,,,-5.321893e-06,153.5
,,,-5.311893e-06,154.299
,,,-5.301893e-06,154.399
,,,-5.291893e-06,154.399
,,,-5.281893e-06,154.799
,,,-5.271893e-06,154.799
,,,-5.261893e-06,154.899
,,,-5.251893e-06,155.199
,,,-5.241893e-06,155.399
,,,-5.231893e-06,155.998
,,,-5.221893e-06,156.098
,,,-5.211893e-06,155.998
,,,-5.201893e-06,156.098
,,,-5.191893e-06,156.498
,,,-5.181893e-06,156.998
,,,-5.171893e-06,157.298
,,,-5.161893e-06,157.298
,,,-5.151893e-06,157.598
,,,-5.141893e-06,157.798
,,,-5.131893e-06,158.097
,,,-5.121893e-06,157.998
,,,-5.111893e-06,158.397
,,,-5.101893e-06,158.697
,,,-5.091893e-06,158.897
,,,-5.081893e-06,158.797
,,,-5.071893e-06,159.297
,,,-5.061893e-06,159.897
,,,-5.051893e-06,159.797
,,,-5.041893e-06,159.697
,,,-5.031893e-06,159.997
,,,-5.021893e-06,160.196
,,,-5.011893e-06,160.496
,,,-5.001893e-06,160.596
,,,-4.991893e-06,160.996
,,,-4.981893e-06,160.996
,,,-4.971893e-06,161.496
,,,-4.961893e-06,161.496
,,,-4.951893e-06,161.796
,,,-4.941893e-06,161.396
,,,-4.931893e-06,162.395
,,,-4.921893e-06,162.195
,,,-4.911893e-06,162.795
,,,-4.901893e-06,162.695
,,,-4.891893e-06,163.095
,,,-4.881893e-06,162.895
,,,-4.871893e-06,163.295
,,,-4.861893e-06,163.195
,,,-4.851893e-06,163.995
,,,-4.841893e-06,163.895
,,,-4.831893e-06,164.294
,,,-4.821893e-06,164.294
,,,-4.811893e-06,164.694
,,,-4.801893e-06,164.694
,,,-4.791893e-06,165.194
,,,-4.781893e-06,165.094
,,,-4.771893e-06,165.706
,,,-4.761893e-06,165.806
,,,-4.751893e-06,166.406
,,,-4.741893e-06,165.706
,,,-4.731893e-06,166.506
,,,-4.721893e-06,166.506
,,,-4.711893e-06,166.706
,,,-4.701893e-06,166.606
,,,-4.691893e-06,167.505
,,,-4.681893e-06,167.006
,,,-4.671893e-06,167.805
,,,-4.661893e-06,167.805
,,,-4.651893e-06,168.005
,,,-4.641893e-06,168.205
,,,-4.631893e-06,168.105
,,,-4.621893e-06,168.905
,,,-4.611893e-06,169.005
,,,-4.601893e-06,169.005
,,,-4.591893e-06,169.304
,,,-4.581893e-06,169.105
,,,-4.571893e-06,169.804
,,,-4.561893e-06,170.004
,,,-4.551893e-06,169.704
,,,-4.541893e-06,170.404
,,,-4.531893e-06,170.704
,,,-4.521893e-06,170.404
,,,-4.511893e-06,170.704
,,,-4.501893e-06,171.104
,,,-4.491893e-06,171.403
,,,-4.481893e-06,171.303
,,,-4.471893e-06,171.903
,,,-4.461893e-06,172.303
,,,-4.451893e-06,172.003
,,,-4.441893e-06,172.403
,,,-4.431893e-06,172.903
,,,-4.421893e-06,172.803
,,,-4.411893e-06,173.003
,,,-4.401893e-06,172.803
,,,-4.391893e-06,173.502
,,,-4.381893e-06,173.402
,,,-4.371893e-06,173.802
,,,-4.361893e-06,173.602
,,,-4.351893e-06,174.002
,,,-4.341893e-06,174.202
,,,-4.331893e-06,174.802
,,,-4.321893e-06,174.602
,,,-4.311893e-06,174.902
,,,-4.301893e-06,175.202
,,,-4.291893e-06,175.202
,,,-4.281893e-06,175.501
,,,-4.271893e-06,175.701
,,,-4.261893e-06,176.001
,,,-4.251893e-06,175.901
,,,-4.241893e-06,176.201
,,,-4.231893e-06,176.801
,,,-4.221893e-06,177.001
,,,-4.211893e-06,176.901
,,,-4.201893e-06,177.001
,,,-4.191893e-06,177.6
,,,-4.181893e-06,177.5
,,,-4.171893e-06,177.7
,,,-4.161893e-06,177.5
,,,-4.151893e-06,177.9
,,,-4.141893e-06,178.4
,,,-4.131893e-06,178.4
,,,-4.121893e-06,178.4
,,,-4.111893e-06,179.4
,,,-4.101893e-06,179.1
,,,-4.091893e-06,179.4
,,,-4.081893e-06,179.3
,,,-4.071893e-06,179.899
,,,-4.061893e-06,180.399
,,,-4.051893e-06,180.099
,,,-4.041893e-06,179.899
,,,-4.031893e-06,180.799
,,,-4.021893e-06,180.799
,,,-4.011893e-06,180.899
,,,-4.001893e-06,180.999
,,,-3.991893e-06,181.598
,,,-3.981893e-06,181.598
,,,-3.971893e-06,181.299
,,,-3.961893e-06,181.798
,,,-3.951893e-06,182.698
,,,-3.941893e-06,181.998
,,,-3.931893e-06,182.498
,,,-3.921893e-06,181.898
,,,-3.911893e-06,183.298
,,,-3.901893e-06,182.798
,,,-3.891893e-06,183.198
,,,-3.881893e-06,183.198
,,,-3.871893e-06,184.097
,,,-3.861893e-06,183.797
,,,-3.851893e-06,184.097
,,,-3.841893e-06,184.197
,,,-3.831893e-06,184.497
,,,-3.821893e-06,184.697
,,,-3.811893e-06,184.497
,,,-3.801893e-06,184.897
,,,-3.791893e-06,185.297
,,,-3.781893e-06,185.097
,,,-3.771893e-06,185.696
,,,-3.761893e-06,185.696
,,,-3.751893e-06,186.196
,,,-3.741893e-06,185.796
,,,-3.731893e-06,186.396
,,,-3.721893e-06,186.396
,,,-3.711893e-06,186.896
,,,-3.701893e-06,186.496
,,,-3.691893e-06,187.296
,,,-3.681893e-06,187.196
,,,-3.671893e-06,187.695
,,,-3.661893e-06,187.795
,,,-3.651893e-06,187.595
,,,-3.641893e-06,187.895
,,,-3.631893e-06,188.295
,,,-3.621893e-06,188.395
,,,-3.611893e-06,188.395
,,,-3.601893e-06,188.795
,,,-3.591893e-06,188.895
,,,-3.581893e-06,188.995
,,,-3.571893e-06,189.694
,,,-3.561893e-06,189.395
,,,-3.551893e-06,189.894
,,,-3.541893e-06,190.194
,,,-3.531893e-06,190.194
,,,-3.521893e-06,190.094
,,,-3.511893e-06,190.594
,,,-3.501893e-06,190.994
,,,-3.491893e-06,191.206
,,,-3.481893e-06,191.094
,,,-3.471893e-06,191.406
,,,-3.461893e-06,192.006
,,,-3.451893e-06,191.306
,,,-3.441893e-06,192.106
,,,-3.431893e-06,192.606
,,,-3.421893e-06,192.206
,,,-3.411893e-06,192.705
,,,-3.401893e-06,192.705
,,,-3.391893e-06,192.805
,,,-3.381893e-06,192.606
,,,-3.371893e-06,193.005
,,,-3.361893e-06,192.805
,,,-3.351893e-06,193.305
,,,-3.341893e-06,194.105
,,,-3.331893e-06,193.905
,,,-3.321893e-06,194.005
,,,-3.311893e-06,194.405
,,,-3.301893e-06,194.505
,,,-3.291893e-06,194.505
,,,-3.281893e-06,194.804
,,,-3.271893e-06,195.304
,,,-3.261893e-06,195.104
,,,-3.251893e-06,195.204
,,,-3.241893e-06,195.404
,,,-3.231893e-06,195.804
,,,-3.221893e-06,196.004
,,,-3.211893e-06,196.004
,,,-3.201893e-06,196.604
,,,-3.191893e-06,196.604
,,,-3.181893e-06,196.604
,,,-3.171893e-06,197.403
,,,-3.161893e-06,197.303
,,,-3.151893e-06,197.303
,,,-3.141893e-06,197.203
,,,-3.131893e-06,197.503
,,,-3.121893e-06,197.703
,,,-3.111893e-06,198.403
,,,-3.101893e-06,198.003
,,,-3.091893e-06,198.303
,,,-3.081893e-06,198.303
,,,-3.071893e-06,198.703
,,,-3.061893e-06,198.603
,,,-3.051893e-06,198.902
,,,-3.041893e-06,198.803
,,,-3.031893e-06,199.502
,,,-3.021893e-06,199.502
,,,-3.011893e-06,199.802
,,,-3.001893e-06,199.802
,,,-2.991893e-06,200.402
,,,-2.981893e-06,200.402
,,,-2.971893e-06,200.502
,,,-2.961893e-06,200.802
,,,-2.951893e-06,200.802
,,,-2.941893e-06,200.802
,,,-2.931893e-06,201.501
,,,-2.921893e-06,200.901
,,,-2.911893e-06,201.801
,,,-2.901893e-06,202.201
,,,-2.891893e-06,201.801
,,,-2.881893e-06,202.201
,,,-2.871893e-06,202.301
,,,-2.861893e-06,202.401
,,,-2.851893e-06,202.301
,,,-2.841893e-06,202.401
,,,-2.831893e-06,203.1
,,,-2.821893e-06,203.4
,,,-2.811893e-06,203.5
,,,-2.801893e-06,203.5
,,,-2.791893e-06,203.7
,,,-2.781893e-06,204.2
,,,-2.771893e-06,203.8
,,,-2.761893e-06,204.1
,,,-2.751893e-06,204.9
,,,-2.741893e-06,204.4
,,,-2.731893e-06,204.7
,,,-2.721893e-06,204.7
,,,-2.711893e-06,205.399
,,,-2.701893e-06,205.499
,,,-2.691893e-06,205.399
,,,-2.681893e-06,205.499
,,,-2.671893e-06,205.799
,,,-2.661893e-06,205.999
,,,-2.651893e-06,206.199
,,,-2.641893e-06,205.799
,,,-2.631893e-06,206.899
,,,-2.621893e-06,206.799
,,,-2.611893e-06,206.799
,,,-2.601893e-06,206.699
,,,-2.591893e-06,207.498
,,,-2.581893e-06,207.298
,,,-2.571893e-06,207.598
,,,-2.561893e-06,207.498
,,,-2.551893e-06,207.698
,,,-2.541893e-06,208.198
,,,-2.531893e-06,208.098
,,,-2.521893e-06,208.298
,,,-2.511893e-06,208.998
,,,-2.501893e-06,209.097
,,,-2.491893e-06,208.998
,,,-2.481893e-06,209.097
,,,-2.471893e-06,209.497
,,,-2.461893e-06,209.397
,,,-2.451893e-06,209.697
,,,-2.441893e-06,209.597
,,,-2.431893e-06,210.397
,,,-2.421893e-06,210.197
,,,-2.411893e-06,210.497
,,,-2.401893e-06,210.297
,,,-2.391893e-06,210.197
,,,-2.381893e-06,210.897
,,,-2.371893e-06,210.797
,,,-2.361893e-06,211.296
,,,-2.351893e-06,211.096
,,,-2.341893e-06,211.796
,,,-2.331893e-06,212.096
,,,-2.321893e-06,211.796
,,,-2.311893e-06,211.996
,,,-2.301893e-06,212.696
,,,-2.291893e-06,212.596
,,,-2.281893e-06,212.096
,,,-2.271893e-06,212.596
,,,-2.261893e-06,212.796
,,,-2.251893e-06,213.195
,,,-2.241893e-06,213.195
,,,-2.231893e-06,213.695
,,,-2.221893e-06,213.495
,,,-2.211893e-06,213.995
,,,-2.201893e-06,213.895
,,,-2.191893e-06,214.195
,,,-2.181893e-06,214.495
,,,-2.171893e-06,214.795
,,,-2.161893e-06,214.795
,,,-2.151893e-06,215.194
,,,-2.141893e-06,215.294
,,,-2.131893e-06,215.194
,,,-2.121893e-06,215.394
,,,-2.111893e-06,215.594
,,,-2.101893e-06,215.994
,,,-2.091893e-06,216.494
,,,-2.081893e-06,215.894
,,,-2.071893e-06,216.706
,,,-2.061893e-06,216.706
,,,-2.051893e-06,216.806
,,,-2.041893e-06,216.906
,,,-2.031893e-06,217.006
,,,-2.021893e-06,217.306
,,,-2.011893e-06,217.406
