TVS_10microH_Vin=0_Vout=0/Pout--140k 3--00002.csv

"Record Length",10001,"Points",-9.998978e-06,362.112
"Sample Interval",1e-08,s,-9.988978e-06,357.832
"Trigger Point",999,"Samples",-9.978978e-06,367.463
"Trigger Time",0.897811,s,-9.968978e-06,371.743
,,,-9.958978e-06,381.374
"Horizontal Offset",-9.99898e-06,s,-9.948978e-06,385.654
,,,-9.938978e-06,387.795
,,,-9.928978e-06,405.986
,,,-9.918978e-06,410.266
,,,-9.908978e-06,416.687
,,,-9.898978e-06,417.757
,,,-9.888978e-06,418.827
,,,-9.878978e-06,420.967
,,,-9.868978e-06,420.967
,,,-9.858978e-06,422.037
,,,-9.848978e-06,427.388
,,,-9.838978e-06,442.369
,,,-9.828978e-06,448.79
,,,-9.818978e-06,454.14
,,,-9.808978e-06,470.191
,,,-9.798978e-06,488.383
,,,-9.788978e-06,495.873
,,,-9.778978e-06,491.593
,,,-9.768978e-06,501.224
,,,-9.758978e-06,490.523
,,,-9.748978e-06,494.803
,,,-9.738978e-06,503.364
,,,-9.728978e-06,510.855
,,,-9.718978e-06,519.415
,,,-9.708978e-06,517.275
,,,-9.698978e-06,516.205
,,,-9.688978e-06,527.976
,,,-9.678978e-06,521.556
,,,-9.668978e-06,525.836
,,,-9.658978e-06,520.486
,,,-9.648978e-06,531.186
,,,-9.638978e-06,530.116
,,,-9.628978e-06,530.116
,,,-9.618978e-06,529.046
,,,-9.608978e-06,537.607
,,,-9.598978e-06,548.308
,,,-9.588978e-06,556.869
,,,-9.578978e-06,551.518
,,,-9.568978e-06,563.289
,,,-9.558978e-06,566.499
,,,-9.548978e-06,566.499
,,,-9.538978e-06,561.149
,,,-9.528978e-06,565.429
,,,-9.518978e-06,568.64
,,,-9.508978e-06,580.41
,,,-9.498978e-06,570.78
,,,-9.488978e-06,590.041
,,,-9.478978e-06,581.481
,,,-9.468978e-06,588.971
,,,-9.458978e-06,578.27
,,,-9.448978e-06,586.831
,,,-9.438978e-06,591.111
,,,-9.428978e-06,573.99
,,,-9.418978e-06,580.41
,,,-9.408978e-06,579.34
,,,-9.398978e-06,583.621
,,,-9.388978e-06,576.13
,,,-9.378978e-06,580.41
,,,-9.368978e-06,593.252
,,,-9.358978e-06,585.761
,,,-9.348978e-06,593.252
,,,-9.338978e-06,593.252
,,,-9.328978e-06,594.322
,,,-9.318978e-06,598.602
,,,-9.308978e-06,587.901
,,,-9.298978e-06,601.812
,,,-9.288978e-06,590.041
,,,-9.278978e-06,600.742
,,,-9.268978e-06,608.233
,,,-9.258978e-06,598.602
,,,-9.248978e-06,598.602
,,,-9.238978e-06,610.373
,,,-9.228978e-06,598.602
,,,-9.218978e-06,601.812
,,,-9.208978e-06,611.443
,,,-9.198978e-06,607.163
,,,-9.188978e-06,599.672
,,,-9.178978e-06,609.303
,,,-9.168978e-06,603.952
,,,-9.158978e-06,608.233
,,,-9.148978e-06,606.093
,,,-9.138978e-06,608.233
,,,-9.128978e-06,614.653
,,,-9.118978e-06,613.583
,,,-9.108978e-06,607.163
,,,-9.098978e-06,611.443
,,,-9.088978e-06,598.602
,,,-9.078978e-06,618.934
,,,-9.068978e-06,618.934
,,,-9.058978e-06,615.723
,,,-9.048978e-06,628.564
,,,-9.038978e-06,628.564
,,,-9.028978e-06,639.265
,,,-9.018978e-06,632.845
,,,-9.008978e-06,639.265
,,,-8.998978e-06,633.915
,,,-8.988978e-06,630.705
,,,-8.978978e-06,642.476
,,,-8.968978e-06,657.457
,,,-8.958978e-06,654.247
,,,-8.948978e-06,653.177
,,,-8.938978e-06,653.177
,,,-8.928978e-06,659.597
,,,-8.918978e-06,659.597
,,,-8.908978e-06,656.387
,,,-8.898978e-06,663.877
,,,-8.888978e-06,664.947
,,,-8.878978e-06,671.368
,,,-8.868978e-06,675.648
,,,-8.858978e-06,675.648
,,,-8.848978e-06,689.56
,,,-8.838978e-06,695.98
,,,-8.828978e-06,687.419
,,,-8.818978e-06,701.33
,,,-8.808978e-06,695.98
,,,-8.798978e-06,709.891
,,,-8.788978e-06,714.172
,,,-8.778978e-06,721.662
,,,-8.768978e-06,731.293
,,,-8.758978e-06,729.153
,,,-8.748978e-06,753.765
,,,-8.738978e-06,739.854
,,,-8.728978e-06,759.115
,,,-8.718978e-06,764.466
,,,-8.708978e-06,759.115
,,,-8.698978e-06,750.555
,,,-8.688978e-06,765.536
,,,-8.678978e-06,766.606
,,,-8.668978e-06,771.956
,,,-8.658978e-06,781.587
,,,-8.648978e-06,790.148
,,,-8.638978e-06,810.48
,,,-8.628978e-06,809.409
,,,-8.618978e-06,810.48
,,,-8.608978e-06,802.989
,,,-8.598978e-06,834.021
,,,-8.588978e-06,820.11
,,,-8.578978e-06,824.391
,,,-8.568978e-06,847.933
,,,-8.558978e-06,846.863
,,,-8.548978e-06,859.704
,,,-8.538978e-06,856.493
,,,-8.528978e-06,869.334
,,,-8.518978e-06,895.017
,,,-8.508978e-06,859.704
,,,-8.498978e-06,878.965
,,,-8.488978e-06,896.087
,,,-8.478978e-06,905.717
,,,-8.468978e-06,924.979
,,,-8.458978e-06,915.348
,,,-8.448978e-06,923.909
,,,-8.438978e-06,932.47
,,,-8.428978e-06,942.1
,,,-8.418978e-06,936.75
,,,-8.408978e-06,947.451
,,,-8.398978e-06,953.871
,,,-8.388978e-06,964.572
,,,-8.378978e-06,959.222
,,,-8.368978e-06,970.993
,,,-8.358978e-06,996.675
,,,-8.348978e-06,998.815
,,,-8.338978e-06,989.184
,,,-8.328978e-06,1000.96
,,,-8.318978e-06,1031.99
,,,-8.308978e-06,1015.94
,,,-8.298978e-06,1028.78
,,,-8.288978e-06,1046.97
,,,-8.278978e-06,1029.85
,,,-8.268978e-06,1058.74
,,,-8.258978e-06,1046.97
,,,-8.248978e-06,1054.46
,,,-8.238978e-06,1081.21
,,,-8.228978e-06,1069.44
,,,-8.218978e-06,1068.37
,,,-8.208978e-06,1080.14
,,,-8.198978e-06,1097.26
,,,-8.188978e-06,1095.12
,,,-8.178978e-06,1103.68
,,,-8.168978e-06,1098.33
,,,-8.158978e-06,1105.82
,,,-8.148978e-06,1119.74
,,,-8.138978e-06,1113.31
,,,-8.128978e-06,1117.59
,,,-8.118978e-06,1144.35
,,,-8.108978e-06,1146.49
,,,-8.098978e-06,1153.98
,,,-8.088978e-06,1159.33
,,,-8.078978e-06,1149.7
,,,-8.068978e-06,1187.15
,,,-8.058978e-06,1156.12
,,,-8.048978e-06,1172.17
,,,-8.038978e-06,1179.66
,,,-8.028978e-06,1198.92
,,,-8.018978e-06,1178.59
,,,-8.008978e-06,1205.34
,,,-7.998978e-06,1195.71
,,,-7.988978e-06,1202.13
,,,-7.978978e-06,1201.06
,,,-7.968978e-06,1213.9
,,,-7.958978e-06,1214.97
,,,-7.948978e-06,1220.32
,,,-7.938978e-06,1235.3
,,,-7.928978e-06,1229.95
,,,-7.918978e-06,1234.23
,,,-7.908978e-06,1250.29
,,,-7.898978e-06,1259.92
,,,-7.888978e-06,1248.15
,,,-7.878978e-06,1247.08
,,,-7.868978e-06,1263.13
,,,-7.858978e-06,1265.27
,,,-7.848978e-06,1262.06
,,,-7.838978e-06,1274.9
,,,-7.828978e-06,1284.53
,,,-7.818978e-06,1288.81
,,,-7.808978e-06,1281.32
,,,-7.798978e-06,1304.86
,,,-7.788978e-06,1302.72
,,,-7.778978e-06,1301.65
,,,-7.768978e-06,1315.56
,,,-7.758978e-06,1313.42
,,,-7.748978e-06,1320.91
,,,-7.738978e-06,1327.33
,,,-7.728978e-06,1307
,,,-7.718978e-06,1332.68
,,,-7.708978e-06,1341.24
,,,-7.698978e-06,1335.89
,,,-7.688978e-06,1341.24
,,,-7.678978e-06,1359.43
,,,-7.668978e-06,1347.66
,,,-7.658978e-06,1366.93
,,,-7.648978e-06,1346.59
,,,-7.638978e-06,1369.07
,,,-7.628978e-06,1381.91
,,,-7.618978e-06,1369.07
,,,-7.608978e-06,1362.65
,,,-7.598978e-06,1395.82
,,,-7.588978e-06,1378.7
,,,-7.578978e-06,1402.24
,,,-7.568978e-06,1397.96
,,,-7.558978e-06,1427.92
,,,-7.548978e-06,1418.29
,,,-7.538978e-06,1403.31
,,,-7.528978e-06,1416.15
,,,-7.518978e-06,1430.06
,,,-7.508978e-06,1443.97
,,,-7.498978e-06,1446.11
,,,-7.488978e-06,1450.39
,,,-7.478978e-06,1450.39
,,,-7.468978e-06,1460.02
,,,-7.458978e-06,1451.46
,,,-7.448978e-06,1464.3
,,,-7.438978e-06,1476.07
,,,-7.428978e-06,1494.27
,,,-7.418978e-06,1468.58
,,,-7.408978e-06,1507.11
,,,-7.398978e-06,1525.3
,,,-7.388978e-06,1513.53
,,,-7.378978e-06,1512.46
,,,-7.368978e-06,1512.46
,,,-7.358978e-06,1527.44
,,,-7.348978e-06,1530.65
,,,-7.338978e-06,1536
,,,-7.328978e-06,1550.98
,,,-7.318978e-06,1559.54
,,,-7.308978e-06,1575.59
,,,-7.298978e-06,1567.03
,,,-7.288978e-06,1572.38
,,,-7.278978e-06,1585.22
,,,-7.268978e-06,1591.64
,,,-7.258978e-06,1576.66
,,,-7.248978e-06,1617.33
,,,-7.238978e-06,1636.59
,,,-7.228978e-06,1626.96
,,,-7.218978e-06,1647.29
,,,-7.208978e-06,1626.96
,,,-7.198978e-06,1652.64
,,,-7.188978e-06,1654.78
,,,-7.178978e-06,1674.04
,,,-7.168978e-06,1665.48
,,,-7.158978e-06,1696.51
,,,-7.148978e-06,1678.32
,,,-7.138978e-06,1690.09
,,,-7.128978e-06,1696.51
,,,-7.118978e-06,1726.48
,,,-7.108978e-06,1732.9
,,,-7.098978e-06,1718.98
,,,-7.088978e-06,1739.32
,,,-7.078978e-06,1747.88
,,,-7.068978e-06,1739.32
,,,-7.058978e-06,1766.07
,,,-7.048978e-06,1760.72
,,,-7.038978e-06,1793.89
,,,-7.028978e-06,1769.28
,,,-7.018978e-06,1800.31
,,,-7.008978e-06,1789.61
,,,-6.998978e-06,1804.59
,,,-6.988978e-06,1817.43
,,,-6.978978e-06,1838.83
,,,-6.968978e-06,1833.48
,,,-6.958978e-06,1854.89
,,,-6.948978e-06,1853.82
,,,-6.938978e-06,1861.31
,,,-6.928978e-06,1861.31
,,,-6.918978e-06,1898.76
,,,-6.908978e-06,1888.06
,,,-6.898978e-06,1894.48
,,,-6.888978e-06,1920.16
,,,-6.878978e-06,1916.95
,,,-6.868978e-06,1942.63
,,,-6.858978e-06,1952.26
,,,-6.848978e-06,1923.37
,,,-6.838978e-06,1958.68
,,,-6.828978e-06,1955.47
,,,-6.818978e-06,1968.32
,,,-6.808978e-06,1959.75
,,,-6.798978e-06,1968.32
,,,-6.788978e-06,2031.45
,,,-6.778978e-06,2003.63
,,,-6.768978e-06,2011.12
,,,-6.758978e-06,2025.03
,,,-6.748978e-06,2025.03
,,,-6.738978e-06,2040.01
,,,-6.728978e-06,2042.15
,,,-6.718978e-06,2043.22
,,,-6.708978e-06,2054.99
,,,-6.698978e-06,2073.18
,,,-6.688978e-06,2073.18
,,,-6.678978e-06,2073.18
,,,-6.668978e-06,2096.73
,,,-6.658978e-06,2094.59
,,,-6.648978e-06,2088.17
,,,-6.638978e-06,2113.85
,,,-6.628978e-06,2121.34
,,,-6.618978e-06,2144.88
,,,-6.608978e-06,2111.71
,,,-6.598978e-06,2158.79
,,,-6.588978e-06,2153.44
,,,-6.578978e-06,2157.72
,,,-6.568978e-06,2187.68
,,,-6.558978e-06,2170.56
,,,-6.548978e-06,2173.77
,,,-6.538978e-06,2199.45
,,,-6.528978e-06,2216.58
,,,-6.518978e-06,2221.93
,,,-6.508978e-06,2225.14
,,,-6.498978e-06,2241.19
,,,-6.488978e-06,2232.63
,,,-6.478978e-06,2255.1
,,,-6.468978e-06,2252.96
,,,-6.458978e-06,2280.78
,,,-6.448978e-06,2266.87
,,,-6.438978e-06,2280.78
,,,-6.428978e-06,2289.34
,,,-6.418978e-06,2279.71
,,,-6.408978e-06,2293.62
,,,-6.398978e-06,2307.53
,,,-6.388978e-06,2338.57
,,,-6.378978e-06,2332.15
,,,-6.368978e-06,2319.3
,,,-6.358978e-06,2340.71
,,,-6.348978e-06,2346.06
,,,-6.338978e-06,2353.55
,,,-6.328978e-06,2376.02
,,,-6.318978e-06,2356.76
,,,-6.308978e-06,2388.86
,,,-6.298978e-06,2402.77
,,,-6.288978e-06,2423.1
,,,-6.278978e-06,2412.4
,,,-6.268978e-06,2424.17
,,,-6.258978e-06,2426.31
,,,-6.248978e-06,2418.82
,,,-6.238978e-06,2429.52
,,,-6.228978e-06,2423.1
,,,-6.218978e-06,2449.86
,,,-6.208978e-06,2452
,,,-6.198978e-06,2452
,,,-6.188978e-06,2478.75
,,,-6.178978e-06,2481.96
,,,-6.168978e-06,2481.96
,,,-6.158978e-06,2501.22
,,,-6.148978e-06,2512.99
,,,-6.138978e-06,2509.78
,,,-6.128978e-06,2532.25
,,,-6.118978e-06,2538.67
,,,-6.108978e-06,2548.3
,,,-6.098978e-06,2563.28
,,,-6.088978e-06,2561.14
,,,-6.078978e-06,2565.42
,,,-6.068978e-06,2561.14
,,,-6.058978e-06,2585.76
,,,-6.048978e-06,2591.11
,,,-6.038978e-06,2643.54
,,,-6.028978e-06,2621.07
,,,-6.018978e-06,2616.79
,,,-6.008978e-06,2636.05
,,,-5.998978e-06,2654.24
,,,-5.988978e-06,2675.64
,,,-5.978978e-06,2676.71
,,,-5.968978e-06,2688.48
,,,-5.958978e-06,2683.13
,,,-5.948978e-06,2710.96
,,,-5.938978e-06,2705.61
,,,-5.928978e-06,2733.43
,,,-5.918978e-06,2739.85
,,,-5.908978e-06,2728.08
,,,-5.898978e-06,2735.57
,,,-5.888978e-06,2745.2
,,,-5.878978e-06,2778.37
,,,-5.868978e-06,2751.62
,,,-5.858978e-06,2764.46
,,,-5.848978e-06,2812.62
,,,-5.838978e-06,2805.12
,,,-5.828978e-06,2816.9
,,,-5.818978e-06,2814.76
,,,-5.808978e-06,2831.88
,,,-5.798978e-06,2834.02
,,,-5.788978e-06,2855.42
,,,-5.778978e-06,2850.07
,,,-5.768978e-06,2907.85
,,,-5.758978e-06,2881.1
,,,-5.748978e-06,2886.45
,,,-5.738978e-06,2912.13
,,,-5.728978e-06,2916.41
,,,-5.718978e-06,2939.96
,,,-5.708978e-06,2932.47
,,,-5.698978e-06,2946.38
,,,-5.688978e-06,2944.24
,,,-5.678978e-06,2948.52
,,,-5.668978e-06,2977.41
,,,-5.658978e-06,2977.41
,,,-5.648978e-06,2985.97
,,,-5.638978e-06,3041.61
,,,-5.628978e-06,3046.96
,,,-5.618978e-06,3035.19
,,,-5.608978e-06,3055.53
,,,-5.598978e-06,3059.81
,,,-5.588978e-06,3075.86
,,,-5.578978e-06,3057.67
,,,-5.568978e-06,3055.53
,,,-5.558978e-06,3088.7
,,,-5.548978e-06,3107.96
,,,-5.538978e-06,3112.24
,,,-5.528978e-06,3122.94
,,,-5.518978e-06,3125.08
,,,-5.508978e-06,3152.9
,,,-5.498978e-06,3167.88
,,,-5.488978e-06,3145.41
,,,-5.478978e-06,3193.57
,,,-5.468978e-06,3204.27
,,,-5.458978e-06,3208.55
,,,-5.448978e-06,3231.02
,,,-5.438978e-06,3212.83
,,,-5.428978e-06,3227.81
,,,-5.418978e-06,3232.09
,,,-5.408978e-06,3258.84
,,,-5.398978e-06,3277.03
,,,-5.388978e-06,3279.17
,,,-5.378978e-06,3234.23
,,,-5.368978e-06,3296.3
,,,-5.358978e-06,3327.33
,,,-5.348978e-06,3350.87
,,,-5.338978e-06,3323.05
,,,-5.328978e-06,3335.89
,,,-5.318978e-06,3357.29
,,,-5.308978e-06,3406.51
,,,-5.298978e-06,3403.3
,,,-5.288978e-06,3403.3
,,,-5.278978e-06,3405.44
,,,-5.268978e-06,3416.15
,,,-5.258978e-06,3431.13
,,,-5.248978e-06,3433.27
,,,-5.238978e-06,3439.69
,,,-5.228978e-06,3467.51
,,,-5.218978e-06,3452.53
,,,-5.208978e-06,3487.84
,,,-5.198978e-06,3473.93
,,,-5.188978e-06,3506.03
,,,-5.178978e-06,3488.91
,,,-5.168978e-06,3506.03
,,,-5.158978e-06,3532.78
,,,-5.148978e-06,3559.54
,,,-5.138978e-06,3526.36
,,,-5.128978e-06,3584.15
,,,-5.118978e-06,3567.03
,,,-5.108978e-06,3601.27
,,,-5.098978e-06,3604.48
,,,-5.088978e-06,3616.25
,,,-5.078978e-06,3643
,,,-5.068978e-06,3651.56
,,,-5.058978e-06,3638.72
,,,-5.048978e-06,3645.14
,,,-5.038978e-06,3684.74
,,,-5.028978e-06,3680.46
,,,-5.018978e-06,3676.18
,,,-5.008978e-06,3696.51
,,,-4.998978e-06,3707.21
,,,-4.988978e-06,3731.82
,,,-4.978978e-06,3729.68
,,,-4.968978e-06,3770.34
,,,-4.958978e-06,3723.26
,,,-4.948978e-06,3775.69
,,,-4.938978e-06,3777.84
,,,-4.928978e-06,3846.32
,,,-4.918978e-06,3805.66
,,,-4.908978e-06,3838.83
,,,-4.898978e-06,3819.57
,,,-4.888978e-06,3838.83
,,,-4.878978e-06,3828.13
,,,-4.868978e-06,3903.04
,,,-4.858978e-06,3859.16
,,,-4.848978e-06,3890.19
,,,-4.838978e-06,3908.39
,,,-4.828978e-06,3920.16
,,,-4.818978e-06,3929.79
,,,-4.808978e-06,3926.58
,,,-4.798978e-06,3945.84
,,,-4.788978e-06,3991.85
,,,-4.778978e-06,3966.17
,,,-4.768978e-06,4013.25
,,,-4.758978e-06,3993.99
,,,-4.748978e-06,4003.62
,,,-4.738978e-06,3998.27
,,,-4.728978e-06,4018.6
,,,-4.718978e-06,4077.46
,,,-4.708978e-06,4052.85
,,,-4.698978e-06,4056.06
,,,-4.688978e-06,4078.53
,,,-4.678978e-06,4065.69
,,,-4.668978e-06,4108.49
,,,-4.658978e-06,4122.4
,,,-4.648978e-06,4113.84
,,,-4.638978e-06,4119.19
,,,-4.628978e-06,4152.37
,,,-4.618978e-06,4160.93
,,,-4.608978e-06,4163.07
,,,-4.598978e-06,4190.89
,,,-4.588978e-06,4218.71
,,,-4.578978e-06,4246.53
,,,-4.568978e-06,4244.39
,,,-4.558978e-06,4224.06
,,,-4.548978e-06,4232.62
,,,-4.538978e-06,4247.6
,,,-4.528978e-06,4309.67
,,,-4.518978e-06,4287.2
,,,-4.508978e-06,4321.44
,,,-4.498978e-06,4316.09
,,,-4.488978e-06,4324.65
,,,-4.478978e-06,4343.91
,,,-4.468978e-06,4352.47
,,,-4.458978e-06,4368.52
,,,-4.448978e-06,4398.49
,,,-4.438978e-06,4387.79
,,,-4.428978e-06,4418.82
,,,-4.418978e-06,4426.31
,,,-4.408978e-06,4402.77
,,,-4.398978e-06,4410.26
,,,-4.388978e-06,4477.67
,,,-4.378978e-06,4470.18
,,,-4.368978e-06,4506.57
,,,-4.358978e-06,4514.06
,,,-4.348978e-06,4512.99
,,,-4.338978e-06,4518.34
,,,-4.328978e-06,4534.39
,,,-4.318978e-06,4541.88
,,,-4.308978e-06,4554.72
,,,-4.298978e-06,4585.75
,,,-4.288978e-06,4573.98
,,,-4.278978e-06,4592.17
,,,-4.268978e-06,4613.57
,,,-4.258978e-06,4627.49
,,,-4.248978e-06,4645.68
,,,-4.238978e-06,4647.82
,,,-4.228978e-06,4664.94
,,,-4.218978e-06,4666.01
,,,-4.208978e-06,4690.62
,,,-4.198978e-06,4714.16
,,,-4.188978e-06,4729.14
,,,-4.178978e-06,4740.91
,,,-4.168978e-06,4736.63
,,,-4.158978e-06,4758.04
,,,-4.148978e-06,4771.95
,,,-4.138978e-06,4811.54
,,,-4.128978e-06,4785.86
,,,-4.118978e-06,4806.19
,,,-4.108978e-06,4785.86
,,,-4.098978e-06,4866.12
,,,-4.088978e-06,4848.99
,,,-4.078978e-06,4867.19
,,,-4.068978e-06,4898.22
,,,-4.058978e-06,4917.48
,,,-4.048978e-06,4921.76
,,,-4.038978e-06,4900.36
,,,-4.028978e-06,4911.06
,,,-4.018978e-06,4948.51
,,,-4.008978e-06,4962.42
,,,-3.998978e-06,4978.47
,,,-3.988978e-06,4995.6
,,,-3.978978e-06,5013.79
,,,-3.968978e-06,5041.61
,,,-3.958978e-06,5049.1
,,,-3.948978e-06,5079.06
,,,-3.938978e-06,5063.01
,,,-3.928978e-06,5081.2
,,,-3.918978e-06,5067.29
,,,-3.908978e-06,5124.01
,,,-3.898978e-06,5131.5
,,,-3.888978e-06,5128.29
,,,-3.878978e-06,5157.18
,,,-3.868978e-06,5163.6
,,,-3.858978e-06,5207.47
,,,-3.848978e-06,5187.14
,,,-3.838978e-06,5201.05
,,,-3.828978e-06,5229.95
,,,-3.818978e-06,5229.95
,,,-3.808978e-06,5256.7
,,,-3.798978e-06,5258.84
,,,-3.788978e-06,5290.94
,,,-3.778978e-06,5316.62
,,,-3.768978e-06,5327.32
,,,-3.758978e-06,5318.76
,,,-3.748978e-06,5350.87
,,,-3.738978e-06,5354.08
,,,-3.728978e-06,5349.8
,,,-3.718978e-06,5363.71
,,,-3.708978e-06,5430.05
,,,-3.698978e-06,5404.37
,,,-3.688978e-06,5478.21
,,,-3.678978e-06,5443.96
,,,-3.668978e-06,5468.57
,,,-3.658978e-06,5471.79
,,,-3.648978e-06,5469.65
,,,-3.638978e-06,5521.01
,,,-3.628978e-06,5530.64
,,,-3.618978e-06,5560.6
,,,-3.608978e-06,5550.97
,,,-3.598978e-06,5515.66
,,,-3.588978e-06,5582
,,,-3.578978e-06,5564.88
,,,-3.568978e-06,5588.42
,,,-3.558978e-06,5599.13
,,,-3.548978e-06,5631.23
,,,-3.538978e-06,5657.98
,,,-3.528978e-06,5695.43
,,,-3.518978e-06,5690.08
,,,-3.508978e-06,5678.31
,,,-3.498978e-06,5712.56
,,,-3.488978e-06,5718.98
,,,-3.478978e-06,5750.01
,,,-3.468978e-06,5722.19
,,,-3.458978e-06,5748.94
,,,-3.448978e-06,5796.02
,,,-3.438978e-06,5804.58
,,,-3.428978e-06,5849.53
,,,-3.418978e-06,5819.56
,,,-3.408978e-06,5863.44
,,,-3.398978e-06,5893.4
,,,-3.388978e-06,5891.26
,,,-3.378978e-06,5878.42
,,,-3.368978e-06,5882.7
,,,-3.358978e-06,5899.82
,,,-3.348978e-06,5966.17
,,,-3.338978e-06,5953.33
,,,-3.328978e-06,5965.1
,,,-3.318978e-06,5980.08
,,,-3.308978e-06,5987.57
,,,-3.298978e-06,6000.41
,,,-3.288978e-06,5993.99
,,,-3.278978e-06,6021.81
,,,-3.268978e-06,6048.56
,,,-3.258978e-06,6034.65
,,,-3.248978e-06,6111.7
,,,-3.238978e-06,6114.91
,,,-3.228978e-06,6112.77
,,,-3.218978e-06,6128.82
,,,-3.208978e-06,6132.03
,,,-3.198978e-06,6179.11
,,,-3.188978e-06,6145.94
,,,-3.178978e-06,6183.39
,,,-3.168978e-06,6240.11
,,,-3.158978e-06,6236.9
,,,-3.148978e-06,6226.2
,,,-3.138978e-06,6274.35
,,,-3.128978e-06,6281.84
,,,-3.118978e-06,6285.05
,,,-3.108978e-06,6294.68
,,,-3.098978e-06,6350.33
,,,-3.088978e-06,6343.91
,,,-3.078978e-06,6354.61
,,,-3.068978e-06,6367.45
,,,-3.058978e-06,6425.23
,,,-3.048978e-06,6399.55
,,,-3.038978e-06,6408.11
,,,-3.028978e-06,6424.16
,,,-3.018978e-06,6462.69
,,,-3.008978e-06,6491.58
,,,-2.998978e-06,6501.21
,,,-2.988978e-06,6494.79
,,,-2.978978e-06,6523.68
,,,-2.968978e-06,6502.28
,,,-2.958978e-06,6549.36
,,,-2.948978e-06,6557.93
,,,-2.938978e-06,6571.84
,,,-2.928978e-06,6595.38
,,,-2.918978e-06,6602.87
,,,-2.908978e-06,6629.62
,,,-2.898978e-06,6661.72
,,,-2.888978e-06,6698.11
,,,-2.878978e-06,6680.99
,,,-2.868978e-06,6692.76
,,,-2.858978e-06,6705.6
,,,-2.848978e-06,6705.6
,,,-2.838978e-06,6705.6
,,,-2.828978e-06,6768.73
,,,-2.818978e-06,6775.15
,,,-2.808978e-06,6790.13
,,,-2.798978e-06,6832.94
,,,-2.788978e-06,6854.34
,,,-2.778978e-06,6855.41
,,,-2.768978e-06,6829.73
,,,-2.758978e-06,6878.95
,,,-2.748978e-06,6903.56
,,,-2.738978e-06,6878.95
,,,-2.728978e-06,6912.12
,,,-2.718978e-06,6950.65
,,,-2.708978e-06,7006.29
,,,-2.698978e-06,6988.1
,,,-2.688978e-06,6978.47
,,,-2.678978e-06,7014.85
,,,-2.668978e-06,7031.97
,,,-2.658978e-06,7041.61
,,,-2.648978e-06,7083.34
,,,-2.638978e-06,7070.5
,,,-2.628978e-06,7126.14
,,,-2.618978e-06,7107.95
,,,-2.608978e-06,7130.42
,,,-2.598978e-06,7131.49
,,,-2.588978e-06,7199.98
,,,-2.578978e-06,7187.14
,,,-2.568978e-06,7208.54
,,,-2.558978e-06,7199.98
,,,-2.548978e-06,7249.2
,,,-2.538978e-06,7281.3
,,,-2.528978e-06,7260.97
,,,-2.518978e-06,7286.66
,,,-2.508978e-06,7318.76
,,,-2.498978e-06,7326.25
,,,-2.488978e-06,7324.11
,,,-2.478978e-06,7348.72
,,,-2.468978e-06,7404.37
,,,-2.458978e-06,7380.82
,,,-2.448978e-06,7390.45
,,,-2.438978e-06,7426.84
,,,-2.428978e-06,7440.75
,,,-2.418978e-06,7451.45
,,,-2.408978e-06,7470.71
,,,-2.398978e-06,7492.11
,,,-2.388978e-06,7518.86
,,,-2.378978e-06,7563.81
,,,-2.368978e-06,7524.22
,,,-2.358978e-06,7571.3
,,,-2.348978e-06,7602.33
,,,-2.338978e-06,7615.17
,,,-2.328978e-06,7645.14
,,,-2.318978e-06,7578.79
,,,-2.308978e-06,7670.82
,,,-2.298978e-06,7672.96
,,,-2.288978e-06,7706.13
,,,-2.278978e-06,7699.71
,,,-2.268978e-06,7781.04
,,,-2.258978e-06,7766.06
,,,-2.248978e-06,7794.95
,,,-2.238978e-06,7762.84
,,,-2.228978e-06,7851.66
,,,-2.218978e-06,7850.59
,,,-2.208978e-06,7847.38
,,,-2.198978e-06,7857.01
,,,-2.188978e-06,7904.1
,,,-2.178978e-06,7943.69
,,,-2.168978e-06,7924.43
,,,-2.158978e-06,7938.34
,,,-2.148978e-06,7973.65
,,,-2.138978e-06,8017.53
,,,-2.128978e-06,7993.98
,,,-2.118978e-06,8007.9
,,,-2.108978e-06,8068.89
,,,-2.098978e-06,8078.52
,,,-2.088978e-06,8062.47
,,,-2.078978e-06,8091.36
,,,-2.068978e-06,8105.27
,,,-2.058978e-06,8186.6
,,,-2.048978e-06,8149.15
,,,-2.038978e-06,8182.32
,,,-2.028978e-06,8190.88
